%YAML 1.1
%TAG !u! tag:unity3d.com,2011:
--- !u!29 &1
OcclusionCullingSettings:
  m_ObjectHideFlags: 0
  serializedVersion: 2
  m_OcclusionBakeSettings:
    smallestOccluder: 5
    smallestHole: 0.25
    backfaceThreshold: 100
  m_SceneGUID: 00000000000000000000000000000000
  m_OcclusionCullingData: {fileID: 0}
--- !u!104 &2
RenderSettings:
  m_ObjectHideFlags: 0
  serializedVersion: 9
  m_Fog: 0
  m_FogColor: {r: 0.5, g: 0.5, b: 0.5, a: 1}
  m_FogMode: 3
  m_FogDensity: 0.01
  m_LinearFogStart: 0
  m_LinearFogEnd: 300
  m_AmbientSkyColor: {r: 0.212, g: 0.227, b: 0.259, a: 1}
  m_AmbientEquatorColor: {r: 0.114, g: 0.125, b: 0.133, a: 1}
  m_AmbientGroundColor: {r: 0.047, g: 0.043, b: 0.035, a: 1}
  m_AmbientIntensity: 1
  m_AmbientMode: 0
  m_SubtractiveShadowColor: {r: 0.42, g: 0.478, b: 0.627, a: 1}
  m_SkyboxMaterial: {fileID: 10304, guid: 0000000000000000f000000000000000, type: 0}
  m_HaloStrength: 0.5
  m_FlareStrength: 1
  m_FlareFadeSpeed: 3
  m_HaloTexture: {fileID: 0}
  m_SpotCookie: {fileID: 10001, guid: 0000000000000000e000000000000000, type: 0}
  m_DefaultReflectionMode: 0
  m_DefaultReflectionResolution: 128
  m_ReflectionBounces: 1
  m_ReflectionIntensity: 1
  m_CustomReflection: {fileID: 0}
  m_Sun: {fileID: 0}
  m_IndirectSpecularColor: {r: 0, g: 0, b: 0, a: 1}
  m_UseRadianceAmbientProbe: 0
--- !u!157 &3
LightmapSettings:
  m_ObjectHideFlags: 0
  serializedVersion: 11
  m_GIWorkflowMode: 0
  m_GISettings:
    serializedVersion: 2
    m_BounceScale: 1
    m_IndirectOutputScale: 1
    m_AlbedoBoost: 1
    m_EnvironmentLightingMode: 0
    m_EnableBakedLightmaps: 1
    m_EnableRealtimeLightmaps: 1
  m_LightmapEditorSettings:
    serializedVersion: 12
    m_Resolution: 2
    m_BakeResolution: 40
    m_AtlasSize: 1024
    m_AO: 0
    m_AOMaxDistance: 1
    m_CompAOExponent: 0
    m_CompAOExponentDirect: 0
    m_ExtractAmbientOcclusion: 0
    m_Padding: 2
    m_LightmapParameters: {fileID: 0}
    m_LightmapsBakeMode: 1
    m_TextureCompression: 1
    m_FinalGather: 0
    m_FinalGatherFiltering: 1
    m_FinalGatherRayCount: 1024
    m_ReflectionCompression: 2
    m_MixedBakeMode: 1
    m_BakeBackend: 0
    m_PVRSampling: 1
    m_PVRDirectSampleCount: 32
    m_PVRSampleCount: 512
    m_PVRBounces: 2
    m_PVREnvironmentSampleCount: 512
    m_PVREnvironmentReferencePointCount: 2048
    m_PVRFilteringMode: 0
    m_PVRDenoiserTypeDirect: 0
    m_PVRDenoiserTypeIndirect: 0
    m_PVRDenoiserTypeAO: 0
    m_PVRFilterTypeDirect: 0
    m_PVRFilterTypeIndirect: 0
    m_PVRFilterTypeAO: 0
    m_PVREnvironmentMIS: 0
    m_PVRCulling: 1
    m_PVRFilteringGaussRadiusDirect: 1
    m_PVRFilteringGaussRadiusIndirect: 5
    m_PVRFilteringGaussRadiusAO: 2
    m_PVRFilteringAtrousPositionSigmaDirect: 0.5
    m_PVRFilteringAtrousPositionSigmaIndirect: 2
    m_PVRFilteringAtrousPositionSigmaAO: 1
    m_ExportTrainingData: 0
    m_TrainingDataDestination: TrainingData
    m_LightProbeSampleCountMultiplier: 4
  m_LightingDataAsset: {fileID: 0}
  m_UseShadowmask: 0
--- !u!196 &4
NavMeshSettings:
  serializedVersion: 2
  m_ObjectHideFlags: 0
  m_BuildSettings:
    serializedVersion: 2
    agentTypeID: 0
    agentRadius: 0.5
    agentHeight: 2
    agentSlope: 45
    agentClimb: 0.4
    ledgeDropHeight: 0
    maxJumpAcrossDistance: 0
    minRegionArea: 2
    manualCellSize: 0
    cellSize: 0.16666667
    manualTileSize: 0
    tileSize: 256
    accuratePlacement: 0
    debug:
      m_Flags: 0
  m_NavMeshData: {fileID: 0}
--- !u!1001 &161382882
PrefabInstance:
  m_ObjectHideFlags: 0
  serializedVersion: 2
  m_Modification:
    m_TransformParent: {fileID: 0}
    m_Modifications:
    - target: {fileID: 402802, guid: e468dd3651bceae4089677f96b8614bb, type: 3}
      propertyPath: m_LocalPosition.x
      value: 24.3431
      objectReference: {fileID: 0}
    - target: {fileID: 402802, guid: e468dd3651bceae4089677f96b8614bb, type: 3}
      propertyPath: m_LocalPosition.y
      value: 28.803034
      objectReference: {fileID: 0}
    - target: {fileID: 402802, guid: e468dd3651bceae4089677f96b8614bb, type: 3}
      propertyPath: m_LocalPosition.z
      value: -39.211796
      objectReference: {fileID: 0}
    - target: {fileID: 402802, guid: e468dd3651bceae4089677f96b8614bb, type: 3}
      propertyPath: m_LocalRotation.x
      value: 0
      objectReference: {fileID: 0}
    - target: {fileID: 402802, guid: e468dd3651bceae4089677f96b8614bb, type: 3}
      propertyPath: m_LocalRotation.y
      value: 0
      objectReference: {fileID: 0}
    - target: {fileID: 402802, guid: e468dd3651bceae4089677f96b8614bb, type: 3}
      propertyPath: m_LocalRotation.z
      value: 0
      objectReference: {fileID: 0}
    - target: {fileID: 402802, guid: e468dd3651bceae4089677f96b8614bb, type: 3}
      propertyPath: m_LocalRotation.w
      value: 1
      objectReference: {fileID: 0}
    - target: {fileID: 402802, guid: e468dd3651bceae4089677f96b8614bb, type: 3}
      propertyPath: m_RootOrder
      value: 11
      objectReference: {fileID: 0}
    m_RemovedComponents: []
  m_SourcePrefab: {fileID: 100100000, guid: e468dd3651bceae4089677f96b8614bb, type: 3}
--- !u!1001 &200503676
PrefabInstance:
  m_ObjectHideFlags: 0
  serializedVersion: 2
  m_Modification:
    m_TransformParent: {fileID: 0}
    m_Modifications:
    - target: {fileID: 405706, guid: 64feb4bac2ce71045aeb3a49793d28ad, type: 3}
      propertyPath: m_LocalPosition.x
      value: 0
      objectReference: {fileID: 0}
    - target: {fileID: 405706, guid: 64feb4bac2ce71045aeb3a49793d28ad, type: 3}
      propertyPath: m_LocalPosition.y
      value: 83.9
      objectReference: {fileID: 0}
    - target: {fileID: 405706, guid: 64feb4bac2ce71045aeb3a49793d28ad, type: 3}
      propertyPath: m_LocalPosition.z
      value: 0
      objectReference: {fileID: 0}
    - target: {fileID: 405706, guid: 64feb4bac2ce71045aeb3a49793d28ad, type: 3}
      propertyPath: m_LocalRotation.x
      value: 0
      objectReference: {fileID: 0}
    - target: {fileID: 405706, guid: 64feb4bac2ce71045aeb3a49793d28ad, type: 3}
      propertyPath: m_LocalRotation.y
      value: 0
      objectReference: {fileID: 0}
    - target: {fileID: 405706, guid: 64feb4bac2ce71045aeb3a49793d28ad, type: 3}
      propertyPath: m_LocalRotation.z
      value: 0
      objectReference: {fileID: 0}
    - target: {fileID: 405706, guid: 64feb4bac2ce71045aeb3a49793d28ad, type: 3}
      propertyPath: m_LocalRotation.w
      value: 1
      objectReference: {fileID: 0}
    - target: {fileID: 405706, guid: 64feb4bac2ce71045aeb3a49793d28ad, type: 3}
      propertyPath: m_RootOrder
      value: 9
      objectReference: {fileID: 0}
    - target: {fileID: 2310520, guid: 64feb4bac2ce71045aeb3a49793d28ad, type: 3}
      propertyPath: m_Materials.Array.data[0]
      value: 
      objectReference: {fileID: 2100000, guid: dccaa7d9080b4864bb0699ea13ccc8b6, type: 2}
    m_RemovedComponents: []
  m_SourcePrefab: {fileID: 100100000, guid: 64feb4bac2ce71045aeb3a49793d28ad, type: 3}
--- !u!1 &431674821
GameObject:
  m_ObjectHideFlags: 0
  m_CorrespondingSourceObject: {fileID: 0}
  m_PrefabInstance: {fileID: 0}
  m_PrefabAsset: {fileID: 0}
  serializedVersion: 6
  m_Component:
  - component: {fileID: 431674826}
  - component: {fileID: 431674825}
  - component: {fileID: 431674823}
  - component: {fileID: 431674822}
  - component: {fileID: 431674827}
  m_Layer: 0
  m_Name: Main Camera
  m_TagString: MainCamera
  m_Icon: {fileID: 0}
  m_NavMeshLayer: 0
  m_StaticEditorFlags: 0
  m_IsActive: 1
--- !u!81 &431674822
AudioListener:
  m_ObjectHideFlags: 0
  m_CorrespondingSourceObject: {fileID: 0}
  m_PrefabInstance: {fileID: 0}
  m_PrefabAsset: {fileID: 0}
  m_GameObject: {fileID: 431674821}
  m_Enabled: 1
--- !u!124 &431674823
Behaviour:
  m_ObjectHideFlags: 0
  m_CorrespondingSourceObject: {fileID: 0}
  m_PrefabInstance: {fileID: 0}
  m_PrefabAsset: {fileID: 0}
  m_GameObject: {fileID: 431674821}
  m_Enabled: 1
--- !u!20 &431674825
Camera:
  m_ObjectHideFlags: 0
  m_CorrespondingSourceObject: {fileID: 0}
  m_PrefabInstance: {fileID: 0}
  m_PrefabAsset: {fileID: 0}
  m_GameObject: {fileID: 431674821}
  m_Enabled: 1
  serializedVersion: 2
  m_ClearFlags: 1
  m_BackGroundColor: {r: 0.19215687, g: 0.3019608, b: 0.4745098, a: 0.019607844}
  m_projectionMatrixMode: 1
  m_GateFitMode: 2
  m_FOVAxisMode: 0
  m_SensorSize: {x: 36, y: 24}
  m_LensShift: {x: 0, y: 0}
  m_FocalLength: 50
  m_NormalizedViewPortRect:
    serializedVersion: 2
    x: 0
    y: 0
    width: 1
    height: 1
  near clip plane: 0.3
  far clip plane: 300
  field of view: 60
  orthographic: 0
  orthographic size: 5
  m_Depth: -1
  m_CullingMask:
    serializedVersion: 2
    m_Bits: 4294967295
  m_RenderingPath: -1
  m_TargetTexture: {fileID: 0}
  m_TargetDisplay: 0
  m_TargetEye: 3
  m_HDR: 0
  m_AllowMSAA: 1
  m_AllowDynamicResolution: 0
  m_ForceIntoRT: 0
  m_OcclusionCulling: 1
  m_StereoConvergence: 10
  m_StereoSeparation: 0.022
--- !u!4 &431674826
Transform:
  m_ObjectHideFlags: 0
  m_CorrespondingSourceObject: {fileID: 0}
  m_PrefabInstance: {fileID: 0}
  m_PrefabAsset: {fileID: 0}
  m_GameObject: {fileID: 431674821}
  m_LocalRotation: {x: 0, y: 0, z: 0, w: 1}
  m_LocalPosition: {x: 0, y: 26.3, z: -59.4}
  m_LocalScale: {x: 1, y: 1, z: 1}
  m_Children: []
  m_Father: {fileID: 0}
  m_RootOrder: 0
  m_LocalEulerAnglesHint: {x: 0, y: 0, z: 0}
--- !u!114 &431674827
MonoBehaviour:
  m_ObjectHideFlags: 0
  m_CorrespondingSourceObject: {fileID: 0}
  m_PrefabInstance: {fileID: 0}
  m_PrefabAsset: {fileID: 0}
  m_GameObject: {fileID: 431674821}
  m_Enabled: 1
  m_EditorHideFlags: 0
  m_Script: {fileID: 11500000, guid: 1dbd3555199a9a64da7f27bb723bbeb8, type: 3}
  m_Name: 
  m_EditorClassIdentifier: 
  cameraSensitivity: 90
  climbSpeed: 4
  normalMoveSpeed: 10
  fastMoveFactor: 3
  dragBtn: 324
  rotationX: 0
  rotationY: 0
--- !u!1 &432113197
GameObject:
  m_ObjectHideFlags: 0
  m_CorrespondingSourceObject: {fileID: 0}
  m_PrefabInstance: {fileID: 0}
  m_PrefabAsset: {fileID: 0}
  serializedVersion: 6
  m_Component:
  - component: {fileID: 432113201}
  - component: {fileID: 432113200}
  - component: {fileID: 432113198}
  - component: {fileID: 432113199}
  m_Layer: 0
  m_Name: Plane
  m_TagString: Untagged
  m_Icon: {fileID: 0}
  m_NavMeshLayer: 0
  m_StaticEditorFlags: 0
  m_IsActive: 1
--- !u!23 &432113198
MeshRenderer:
  m_ObjectHideFlags: 0
  m_CorrespondingSourceObject: {fileID: 0}
  m_PrefabInstance: {fileID: 0}
  m_PrefabAsset: {fileID: 0}
  m_GameObject: {fileID: 432113197}
  m_Enabled: 1
  m_CastShadows: 1
  m_ReceiveShadows: 1
  m_DynamicOccludee: 1
  m_MotionVectors: 1
  m_LightProbeUsage: 1
  m_ReflectionProbeUsage: 1
  m_RayTracingMode: 2
  m_RenderingLayerMask: 1
  m_RendererPriority: 0
  m_Materials:
  - {fileID: 10302, guid: 0000000000000000f000000000000000, type: 0}
  m_StaticBatchInfo:
    firstSubMesh: 0
    subMeshCount: 0
  m_StaticBatchRoot: {fileID: 0}
  m_ProbeAnchor: {fileID: 0}
  m_LightProbeVolumeOverride: {fileID: 0}
  m_ScaleInLightmap: 1
  m_ReceiveGI: 1
  m_PreserveUVs: 1
  m_IgnoreNormalsForChartDetection: 0
  m_ImportantGI: 0
  m_StitchLightmapSeams: 1
  m_SelectedEditorRenderState: 3
  m_MinimumChartSize: 4
  m_AutoUVMaxDistance: 0.5
  m_AutoUVMaxAngle: 89
  m_LightmapParameters: {fileID: 0}
  m_SortingLayerID: 0
  m_SortingLayer: 0
  m_SortingOrder: 0
--- !u!64 &432113199
MeshCollider:
  m_ObjectHideFlags: 0
  m_CorrespondingSourceObject: {fileID: 0}
  m_PrefabInstance: {fileID: 0}
  m_PrefabAsset: {fileID: 0}
  m_GameObject: {fileID: 432113197}
  m_Material: {fileID: 0}
  m_IsTrigger: 0
  m_Enabled: 1
  serializedVersion: 4
  m_Convex: 0
  m_CookingOptions: 30
  m_Mesh: {fileID: 10209, guid: 0000000000000000e000000000000000, type: 0}
--- !u!33 &432113200
MeshFilter:
  m_ObjectHideFlags: 0
  m_CorrespondingSourceObject: {fileID: 0}
  m_PrefabInstance: {fileID: 0}
  m_PrefabAsset: {fileID: 0}
  m_GameObject: {fileID: 432113197}
  m_Mesh: {fileID: 10209, guid: 0000000000000000e000000000000000, type: 0}
--- !u!4 &432113201
Transform:
  m_ObjectHideFlags: 0
  m_CorrespondingSourceObject: {fileID: 0}
  m_PrefabInstance: {fileID: 0}
  m_PrefabAsset: {fileID: 0}
  m_GameObject: {fileID: 432113197}
  m_LocalRotation: {x: 0, y: 0, z: 0, w: 1}
  m_LocalPosition: {x: 0, y: 0, z: 0}
  m_LocalScale: {x: 10, y: 10, z: 10}
  m_Children: []
  m_Father: {fileID: 0}
  m_RootOrder: 4
  m_LocalEulerAnglesHint: {x: 0, y: 0, z: 0}
--- !u!1001 &501120805
PrefabInstance:
  m_ObjectHideFlags: 0
  serializedVersion: 2
  m_Modification:
    m_TransformParent: {fileID: 0}
    m_Modifications:
    - target: {fileID: 495926, guid: d93c116cac5c4464cba518c1bd2ee69a, type: 3}
      propertyPath: m_LocalPosition.x
      value: 19.70581
      objectReference: {fileID: 0}
    - target: {fileID: 495926, guid: d93c116cac5c4464cba518c1bd2ee69a, type: 3}
      propertyPath: m_LocalPosition.y
      value: 5.7218575
      objectReference: {fileID: 0}
    - target: {fileID: 495926, guid: d93c116cac5c4464cba518c1bd2ee69a, type: 3}
      propertyPath: m_LocalPosition.z
      value: -12.286327
      objectReference: {fileID: 0}
    - target: {fileID: 495926, guid: d93c116cac5c4464cba518c1bd2ee69a, type: 3}
      propertyPath: m_LocalRotation.x
      value: 0
      objectReference: {fileID: 0}
    - target: {fileID: 495926, guid: d93c116cac5c4464cba518c1bd2ee69a, type: 3}
      propertyPath: m_LocalRotation.y
      value: 0
      objectReference: {fileID: 0}
    - target: {fileID: 495926, guid: d93c116cac5c4464cba518c1bd2ee69a, type: 3}
      propertyPath: m_LocalRotation.z
      value: 0
      objectReference: {fileID: 0}
    - target: {fileID: 495926, guid: d93c116cac5c4464cba518c1bd2ee69a, type: 3}
      propertyPath: m_LocalRotation.w
      value: 1
      objectReference: {fileID: 0}
    - target: {fileID: 495926, guid: d93c116cac5c4464cba518c1bd2ee69a, type: 3}
      propertyPath: m_RootOrder
      value: 3
      objectReference: {fileID: 0}
    - target: {fileID: 11408202, guid: d93c116cac5c4464cba518c1bd2ee69a, type: 3}
      propertyPath: m_maxParticlesCount
      value: 65536
      objectReference: {fileID: 0}
    - target: {fileID: 11408202, guid: d93c116cac5c4464cba518c1bd2ee69a, type: 3}
      propertyPath: m_dynamic
      value: 1
      objectReference: {fileID: 0}
    - target: {fileID: 11437460, guid: d93c116cac5c4464cba518c1bd2ee69a, type: 3}
      propertyPath: m_Fluid
      value: 1
      objectReference: {fileID: 0}
    - target: {fileID: 11437460, guid: d93c116cac5c4464cba518c1bd2ee69a, type: 3}
      propertyPath: m_NumPlanes
      value: 0
      objectReference: {fileID: 0}
    - target: {fileID: 11437460, guid: d93c116cac5c4464cba518c1bd2ee69a, type: 3}
      propertyPath: m_RelaxationFactor
      value: 1
      objectReference: {fileID: 0}
    - target: {fileID: 11437460, guid: d93c116cac5c4464cba518c1bd2ee69a, type: 3}
      propertyPath: m_DynamicFriction
      value: .300000012
      objectReference: {fileID: 0}
    - target: {fileID: 11437460, guid: d93c116cac5c4464cba518c1bd2ee69a, type: 3}
      propertyPath: m_StaticFriction
      value: .5
      objectReference: {fileID: 0}
    - target: {fileID: 11437460, guid: d93c116cac5c4464cba518c1bd2ee69a, type: 3}
      propertyPath: m_NumIterations
      value: 5
      objectReference: {fileID: 0}
    - target: {fileID: 11437460, guid: d93c116cac5c4464cba518c1bd2ee69a, type: 3}
      propertyPath: m_ParticleFriction
      value: .300000012
      objectReference: {fileID: 0}
    - target: {fileID: 11437460, guid: d93c116cac5c4464cba518c1bd2ee69a, type: 3}
      propertyPath: m_Radius
      value: 1
      objectReference: {fileID: 0}
    - target: {fileID: 11437460, guid: d93c116cac5c4464cba518c1bd2ee69a, type: 3}
      propertyPath: m_SolidRestDistance
      value: 1
      objectReference: {fileID: 0}
    - target: {fileID: 11437460, guid: d93c116cac5c4464cba518c1bd2ee69a, type: 3}
      propertyPath: m_Adhesion
      value: .100000001
      objectReference: {fileID: 0}
    - target: {fileID: 11437460, guid: d93c116cac5c4464cba518c1bd2ee69a, type: 3}
      propertyPath: m_numIterations
      value: 3
      objectReference: {fileID: 0}
    - target: {fileID: 11437460, guid: d93c116cac5c4464cba518c1bd2ee69a, type: 3}
      propertyPath: m_radius
      value: 1
      objectReference: {fileID: 0}
    - target: {fileID: 11437460, guid: d93c116cac5c4464cba518c1bd2ee69a, type: 3}
      propertyPath: m_solidRestDistance
      value: 1
      objectReference: {fileID: 0}
    - target: {fileID: 11437460, guid: d93c116cac5c4464cba518c1bd2ee69a, type: 3}
      propertyPath: m_fluidRestDistance
      value: 0.7
      objectReference: {fileID: 0}
    - target: {fileID: 11437460, guid: d93c116cac5c4464cba518c1bd2ee69a, type: 3}
      propertyPath: m_cohesion
      value: 0.2
      objectReference: {fileID: 0}
    - target: {fileID: 11437460, guid: d93c116cac5c4464cba518c1bd2ee69a, type: 3}
      propertyPath: m_surfaceTension
      value: 0.001
      objectReference: {fileID: 0}
    - target: {fileID: 11437460, guid: d93c116cac5c4464cba518c1bd2ee69a, type: 3}
      propertyPath: m_viscosity
      value: 10
      objectReference: {fileID: 0}
    - target: {fileID: 11437460, guid: d93c116cac5c4464cba518c1bd2ee69a, type: 3}
      propertyPath: m_vorticityConfinement
      value: 1
      objectReference: {fileID: 0}
    - target: {fileID: 11444918, guid: d93c116cac5c4464cba518c1bd2ee69a, type: 3}
      propertyPath: m_maxParticlesCount
      value: 65536
      objectReference: {fileID: 0}
    m_RemovedComponents: []
  m_SourcePrefab: {fileID: 100100000, guid: d93c116cac5c4464cba518c1bd2ee69a, type: 3}
--- !u!1001 &610366410
PrefabInstance:
  m_ObjectHideFlags: 0
  serializedVersion: 2
  m_Modification:
    m_TransformParent: {fileID: 0}
    m_Modifications:
    - target: {fileID: 469572, guid: 6610b26e2694e214187b89a7e07863ee, type: 3}
      propertyPath: m_LocalPosition.x
      value: 0
      objectReference: {fileID: 0}
    - target: {fileID: 469572, guid: 6610b26e2694e214187b89a7e07863ee, type: 3}
      propertyPath: m_LocalPosition.y
      value: 9.26
      objectReference: {fileID: 0}
    - target: {fileID: 469572, guid: 6610b26e2694e214187b89a7e07863ee, type: 3}
      propertyPath: m_LocalPosition.z
      value: 0
      objectReference: {fileID: 0}
    - target: {fileID: 469572, guid: 6610b26e2694e214187b89a7e07863ee, type: 3}
      propertyPath: m_LocalRotation.x
      value: 0
      objectReference: {fileID: 0}
    - target: {fileID: 469572, guid: 6610b26e2694e214187b89a7e07863ee, type: 3}
      propertyPath: m_LocalRotation.y
      value: 0
      objectReference: {fileID: 0}
    - target: {fileID: 469572, guid: 6610b26e2694e214187b89a7e07863ee, type: 3}
      propertyPath: m_LocalRotation.z
      value: 0
      objectReference: {fileID: 0}
    - target: {fileID: 469572, guid: 6610b26e2694e214187b89a7e07863ee, type: 3}
      propertyPath: m_LocalRotation.w
      value: 1
      objectReference: {fileID: 0}
    - target: {fileID: 469572, guid: 6610b26e2694e214187b89a7e07863ee, type: 3}
      propertyPath: m_RootOrder
      value: 5
      objectReference: {fileID: 0}
    m_RemovedComponents: []
  m_SourcePrefab: {fileID: 100100000, guid: 6610b26e2694e214187b89a7e07863ee, type: 3}
--- !u!1001 &738020458
PrefabInstance:
  m_ObjectHideFlags: 0
  serializedVersion: 2
  m_Modification:
    m_TransformParent: {fileID: 0}
    m_Modifications:
    - target: {fileID: 467340, guid: ac4a7a2936093534ebe1ce9ee63383e5, type: 3}
      propertyPath: m_LocalPosition.x
      value: 71.7
      objectReference: {fileID: 0}
    - target: {fileID: 467340, guid: ac4a7a2936093534ebe1ce9ee63383e5, type: 3}
      propertyPath: m_LocalPosition.y
      value: 5.7
      objectReference: {fileID: 0}
    - target: {fileID: 467340, guid: ac4a7a2936093534ebe1ce9ee63383e5, type: 3}
      propertyPath: m_LocalPosition.z
      value: -18.1
      objectReference: {fileID: 0}
    - target: {fileID: 467340, guid: ac4a7a2936093534ebe1ce9ee63383e5, type: 3}
      propertyPath: m_LocalRotation.x
      value: 0
      objectReference: {fileID: 0}
    - target: {fileID: 467340, guid: ac4a7a2936093534ebe1ce9ee63383e5, type: 3}
      propertyPath: m_LocalRotation.y
      value: 0
      objectReference: {fileID: 0}
    - target: {fileID: 467340, guid: ac4a7a2936093534ebe1ce9ee63383e5, type: 3}
      propertyPath: m_LocalRotation.z
      value: 0
      objectReference: {fileID: 0}
    - target: {fileID: 467340, guid: ac4a7a2936093534ebe1ce9ee63383e5, type: 3}
      propertyPath: m_LocalRotation.w
      value: 1
      objectReference: {fileID: 0}
    - target: {fileID: 467340, guid: ac4a7a2936093534ebe1ce9ee63383e5, type: 3}
      propertyPath: m_RootOrder
      value: 10
      objectReference: {fileID: 0}
    m_RemovedComponents: []
  m_SourcePrefab: {fileID: 100100000, guid: ac4a7a2936093534ebe1ce9ee63383e5, type: 3}
--- !u!1001 &1232691720
PrefabInstance:
  m_ObjectHideFlags: 0
  serializedVersion: 2
  m_Modification:
    m_TransformParent: {fileID: 0}
    m_Modifications:
    - target: {fileID: 481614, guid: 577f2d8bbecb03145bbb6668493db6a1, type: 3}
      propertyPath: m_LocalPosition.x
      value: 0
      objectReference: {fileID: 0}
    - target: {fileID: 481614, guid: 577f2d8bbecb03145bbb6668493db6a1, type: 3}
      propertyPath: m_LocalPosition.y
      value: 58.3
      objectReference: {fileID: 0}
    - target: {fileID: 481614, guid: 577f2d8bbecb03145bbb6668493db6a1, type: 3}
      propertyPath: m_LocalPosition.z
      value: -4.4
      objectReference: {fileID: 0}
    - target: {fileID: 481614, guid: 577f2d8bbecb03145bbb6668493db6a1, type: 3}
      propertyPath: m_LocalRotation.x
      value: 0.99098736
      objectReference: {fileID: 0}
    - target: {fileID: 481614, guid: 577f2d8bbecb03145bbb6668493db6a1, type: 3}
      propertyPath: m_LocalRotation.y
      value: 0
      objectReference: {fileID: 0}
    - target: {fileID: 481614, guid: 577f2d8bbecb03145bbb6668493db6a1, type: 3}
      propertyPath: m_LocalRotation.z
      value: 0
      objectReference: {fileID: 0}
    - target: {fileID: 481614, guid: 577f2d8bbecb03145bbb6668493db6a1, type: 3}
      propertyPath: m_LocalRotation.w
      value: 0.13395584
      objectReference: {fileID: 0}
    - target: {fileID: 481614, guid: 577f2d8bbecb03145bbb6668493db6a1, type: 3}
      propertyPath: m_RootOrder
      value: 6
      objectReference: {fileID: 0}
    - target: {fileID: 2395654, guid: 577f2d8bbecb03145bbb6668493db6a1, type: 3}
      propertyPath: m_Materials.Array.data[0]
      value: 
      objectReference: {fileID: 2100000, guid: 83c5a7944dd0ae847bb368005d763ee4, type: 2}
    m_RemovedComponents: []
  m_SourcePrefab: {fileID: 100100000, guid: 577f2d8bbecb03145bbb6668493db6a1, type: 3}
--- !u!1 &1331206872
GameObject:
  m_ObjectHideFlags: 0
  m_CorrespondingSourceObject: {fileID: 100000, guid: 74aced4ac541a4c47b19cae759c1a617,
    type: 3}
  m_PrefabInstance: {fileID: 0}
  m_PrefabAsset: {fileID: 0}
  serializedVersion: 6
  m_Component:
  - component: {fileID: 1331206876}
  - component: {fileID: 1331206875}
  - component: {fileID: 1331206874}
  - component: {fileID: 1331206873}
  m_Layer: 0
  m_Name: Torus
  m_TagString: Untagged
  m_Icon: {fileID: 0}
  m_NavMeshLayer: 0
  m_StaticEditorFlags: 0
  m_IsActive: 1
--- !u!64 &1331206873
MeshCollider:
  m_ObjectHideFlags: 0
  m_CorrespondingSourceObject: {fileID: 0}
  m_PrefabInstance: {fileID: 0}
  m_PrefabAsset: {fileID: 0}
  m_GameObject: {fileID: 1331206872}
  m_Material: {fileID: 0}
  m_IsTrigger: 0
  m_Enabled: 1
  serializedVersion: 4
  m_Convex: 0
  m_CookingOptions: 30
  m_Mesh: {fileID: 4300000, guid: 74aced4ac541a4c47b19cae759c1a617, type: 3}
--- !u!23 &1331206874
MeshRenderer:
  m_ObjectHideFlags: 0
  m_CorrespondingSourceObject: {fileID: 2300000, guid: 74aced4ac541a4c47b19cae759c1a617,
    type: 3}
  m_PrefabInstance: {fileID: 0}
  m_PrefabAsset: {fileID: 0}
  m_GameObject: {fileID: 1331206872}
  m_Enabled: 1
  m_CastShadows: 1
  m_ReceiveShadows: 1
  m_DynamicOccludee: 1
  m_MotionVectors: 1
  m_LightProbeUsage: 1
  m_ReflectionProbeUsage: 1
  m_RayTracingMode: 2
  m_RenderingLayerMask: 1
  m_RendererPriority: 0
  m_Materials:
  - {fileID: 10302, guid: 0000000000000000f000000000000000, type: 0}
  m_StaticBatchInfo:
    firstSubMesh: 0
    subMeshCount: 0
  m_StaticBatchRoot: {fileID: 0}
  m_ProbeAnchor: {fileID: 0}
  m_LightProbeVolumeOverride: {fileID: 0}
  m_ScaleInLightmap: 1
  m_ReceiveGI: 1
  m_PreserveUVs: 0
  m_IgnoreNormalsForChartDetection: 0
  m_ImportantGI: 0
  m_StitchLightmapSeams: 1
  m_SelectedEditorRenderState: 3
  m_MinimumChartSize: 4
  m_AutoUVMaxDistance: 0.5
  m_AutoUVMaxAngle: 89
  m_LightmapParameters: {fileID: 0}
  m_SortingLayerID: 0
  m_SortingLayer: 0
  m_SortingOrder: 0
--- !u!33 &1331206875
MeshFilter:
  m_ObjectHideFlags: 0
  m_CorrespondingSourceObject: {fileID: 3300000, guid: 74aced4ac541a4c47b19cae759c1a617,
    type: 3}
  m_PrefabInstance: {fileID: 0}
  m_PrefabAsset: {fileID: 0}
  m_GameObject: {fileID: 1331206872}
  m_Mesh: {fileID: 4300000, guid: 74aced4ac541a4c47b19cae759c1a617, type: 3}
--- !u!4 &1331206876
Transform:
  m_ObjectHideFlags: 0
  m_CorrespondingSourceObject: {fileID: 400000, guid: 74aced4ac541a4c47b19cae759c1a617,
    type: 3}
  m_PrefabInstance: {fileID: 0}
  m_PrefabAsset: {fileID: 0}
  m_GameObject: {fileID: 1331206872}
  m_LocalRotation: {x: 0, y: 0, z: 0, w: 1}
  m_LocalPosition: {x: 0, y: 0, z: 0}
  m_LocalScale: {x: 1.5, y: 1.5, z: 1.5}
  m_Children: []
  m_Father: {fileID: 0}
  m_RootOrder: 2
  m_LocalEulerAnglesHint: {x: 0, y: 0, z: 0}
--- !u!1001 &1451730827
PrefabInstance:
  m_ObjectHideFlags: 0
  serializedVersion: 2
  m_Modification:
    m_TransformParent: {fileID: 0}
    m_Modifications:
    - target: {fileID: 487878, guid: e5a969deaa141ab4b89a957c2131757d, type: 3}
      propertyPath: m_LocalPosition.x
      value: 53.5
      objectReference: {fileID: 0}
    - target: {fileID: 487878, guid: e5a969deaa141ab4b89a957c2131757d, type: 3}
      propertyPath: m_LocalPosition.y
      value: 17.1
      objectReference: {fileID: 0}
    - target: {fileID: 487878, guid: e5a969deaa141ab4b89a957c2131757d, type: 3}
      propertyPath: m_LocalPosition.z
      value: 0
      objectReference: {fileID: 0}
    - target: {fileID: 487878, guid: e5a969deaa141ab4b89a957c2131757d, type: 3}
      propertyPath: m_LocalRotation.x
      value: 0
      objectReference: {fileID: 0}
    - target: {fileID: 487878, guid: e5a969deaa141ab4b89a957c2131757d, type: 3}
      propertyPath: m_LocalRotation.y
      value: -0.7071068
      objectReference: {fileID: 0}
    - target: {fileID: 487878, guid: e5a969deaa141ab4b89a957c2131757d, type: 3}
      propertyPath: m_LocalRotation.z
      value: 0
      objectReference: {fileID: 0}
    - target: {fileID: 487878, guid: e5a969deaa141ab4b89a957c2131757d, type: 3}
      propertyPath: m_LocalRotation.w
      value: 0.7071067
      objectReference: {fileID: 0}
    - target: {fileID: 487878, guid: e5a969deaa141ab4b89a957c2131757d, type: 3}
      propertyPath: m_RootOrder
      value: 10
      objectReference: {fileID: 0}
    - target: {fileID: 11464034, guid: e5a969deaa141ab4b89a957c2131757d, type: 3}
      propertyPath: m_particles
      value: 
      objectReference: {fileID: 1780421522}
    m_RemovedComponents: []
  m_SourcePrefab: {fileID: 100100000, guid: e5a969deaa141ab4b89a957c2131757d, type: 3}
--- !u!1 &1539021401
GameObject:
  m_ObjectHideFlags: 0
  m_CorrespondingSourceObject: {fileID: 0}
  m_PrefabInstance: {fileID: 0}
  m_PrefabAsset: {fileID: 0}
  serializedVersion: 6
  m_Component:
  - component: {fileID: 1539021403}
  - component: {fileID: 1539021402}
  m_Layer: 0
  m_Name: Directional Light
  m_TagString: Untagged
  m_Icon: {fileID: 0}
  m_NavMeshLayer: 0
  m_StaticEditorFlags: 0
  m_IsActive: 1
--- !u!108 &1539021402
Light:
  m_ObjectHideFlags: 0
  m_CorrespondingSourceObject: {fileID: 0}
  m_PrefabInstance: {fileID: 0}
  m_PrefabAsset: {fileID: 0}
  m_GameObject: {fileID: 1539021401}
  m_Enabled: 1
  serializedVersion: 10
  m_Type: 1
  m_Shape: 0
  m_Color: {r: 1, g: 0.95686275, b: 0.8392157, a: 1}
  m_Intensity: 1
  m_Range: 10
  m_SpotAngle: 30
  m_InnerSpotAngle: 21.80208
  m_CookieSize: 10
  m_Shadows:
    m_Type: 2
    m_Resolution: -1
    m_CustomResolution: -1
    m_Strength: 1
    m_Bias: 0.05
    m_NormalBias: 0.4
    m_NearPlane: 0.2
    m_CullingMatrixOverride:
      e00: 1
      e01: 0
      e02: 0
      e03: 0
      e10: 0
      e11: 1
      e12: 0
      e13: 0
      e20: 0
      e21: 0
      e22: 1
      e23: 0
      e30: 0
      e31: 0
      e32: 0
      e33: 1
    m_UseCullingMatrixOverride: 0
  m_Cookie: {fileID: 0}
  m_DrawHalo: 0
  m_Flare: {fileID: 0}
  m_RenderMode: 0
  m_CullingMask:
    serializedVersion: 2
    m_Bits: 4294967295
  m_RenderingLayerMask: 1
  m_Lightmapping: 4
  m_LightShadowCasterMode: 0
  m_AreaSize: {x: 1, y: 1}
  m_BounceIntensity: 1
  m_ColorTemperature: 6570
  m_UseColorTemperature: 0
  m_BoundingSphereOverride: {x: 0, y: 0, z: 0, w: 0}
  m_UseBoundingSphereOverride: 0
  m_ShadowRadius: 0
  m_ShadowAngle: 0
--- !u!4 &1539021403
Transform:
  m_ObjectHideFlags: 0
  m_CorrespondingSourceObject: {fileID: 0}
  m_PrefabInstance: {fileID: 0}
  m_PrefabAsset: {fileID: 0}
  m_GameObject: {fileID: 1539021401}
  m_LocalRotation: {x: 0.40821794, y: -0.23456973, z: 0.10938166, w: 0.8754261}
  m_LocalPosition: {x: 0, y: 3, z: 0}
  m_LocalScale: {x: 1, y: 1, z: 1}
  m_Children: []
  m_Father: {fileID: 0}
  m_RootOrder: 1
  m_LocalEulerAnglesHint: {x: 50, y: -30, z: 0}
--- !u!1001 &1557089541
PrefabInstance:
  m_ObjectHideFlags: 0
  serializedVersion: 2
  m_Modification:
    m_TransformParent: {fileID: 0}
    m_Modifications:
    - target: {fileID: 435286, guid: 2fdcb5ce10c232a4fb74464c336aa62f, type: 3}
      propertyPath: m_LocalPosition.x
      value: 10.7
      objectReference: {fileID: 0}
    - target: {fileID: 435286, guid: 2fdcb5ce10c232a4fb74464c336aa62f, type: 3}
      propertyPath: m_LocalPosition.y
      value: 54.8
      objectReference: {fileID: 0}
    - target: {fileID: 435286, guid: 2fdcb5ce10c232a4fb74464c336aa62f, type: 3}
      propertyPath: m_LocalPosition.z
      value: 3.26
      objectReference: {fileID: 0}
    - target: {fileID: 435286, guid: 2fdcb5ce10c232a4fb74464c336aa62f, type: 3}
      propertyPath: m_LocalRotation.x
      value: 0
      objectReference: {fileID: 0}
    - target: {fileID: 435286, guid: 2fdcb5ce10c232a4fb74464c336aa62f, type: 3}
      propertyPath: m_LocalRotation.y
      value: 0
      objectReference: {fileID: 0}
    - target: {fileID: 435286, guid: 2fdcb5ce10c232a4fb74464c336aa62f, type: 3}
      propertyPath: m_LocalRotation.z
      value: 0
      objectReference: {fileID: 0}
    - target: {fileID: 435286, guid: 2fdcb5ce10c232a4fb74464c336aa62f, type: 3}
      propertyPath: m_LocalRotation.w
      value: 1
      objectReference: {fileID: 0}
    - target: {fileID: 435286, guid: 2fdcb5ce10c232a4fb74464c336aa62f, type: 3}
      propertyPath: m_RootOrder
      value: 7
      objectReference: {fileID: 0}
    - target: {fileID: 2364264, guid: 2fdcb5ce10c232a4fb74464c336aa62f, type: 3}
      propertyPath: m_Materials.Array.data[0]
      value: 
      objectReference: {fileID: 2100000, guid: ca1abf7602192ef479ec27638f29832c, type: 2}
    - target: {fileID: 11456988, guid: 2fdcb5ce10c232a4fb74464c336aa62f, type: 3}
      propertyPath: m_colour.a
      value: 1
      objectReference: {fileID: 0}
    - target: {fileID: 11456988, guid: 2fdcb5ce10c232a4fb74464c336aa62f, type: 3}
      propertyPath: m_colour.b
      value: 1
      objectReference: {fileID: 0}
    - target: {fileID: 11456988, guid: 2fdcb5ce10c232a4fb74464c336aa62f, type: 3}
      propertyPath: m_colour.r
      value: 1
      objectReference: {fileID: 0}
    - target: {fileID: 11456988, guid: 2fdcb5ce10c232a4fb74464c336aa62f, type: 3}
      propertyPath: m_colour.g
      value: 1
      objectReference: {fileID: 0}
    m_RemovedComponents: []
  m_SourcePrefab: {fileID: 100100000, guid: 2fdcb5ce10c232a4fb74464c336aa62f, type: 3}
--- !u!114 &1780421522 stripped
MonoBehaviour:
  m_CorrespondingSourceObject: {fileID: 11479876, guid: ac4a7a2936093534ebe1ce9ee63383e5,
    type: 3}
  m_PrefabInstance: {fileID: 738020458}
  m_PrefabAsset: {fileID: 0}
  m_GameObject: {fileID: 0}
  m_Enabled: 1
  m_EditorHideFlags: 0
  m_Script: {fileID: 11500000, guid: 62ee2acd474d24a47ae16541e4f523f8, type: 3}
  m_Name: 
  m_EditorClassIdentifier: 
