%YAML 1.1
%TAG !u! tag:unity3d.com,2011:
--- !u!29 &1
OcclusionCullingSettings:
  m_ObjectHideFlags: 0
  serializedVersion: 2
  m_OcclusionBakeSettings:
    smallestOccluder: 5
    smallestHole: 0.25
    backfaceThreshold: 100
  m_SceneGUID: 00000000000000000000000000000000
  m_OcclusionCullingData: {fileID: 0}
--- !u!104 &2
RenderSettings:
  m_ObjectHideFlags: 0
  serializedVersion: 9
  m_Fog: 0
  m_FogColor: {r: 0.5, g: 0.5, b: 0.5, a: 1}
  m_FogMode: 3
  m_FogDensity: 0.01
  m_LinearFogStart: 0
  m_LinearFogEnd: 300
  m_AmbientSkyColor: {r: 0.212, g: 0.227, b: 0.259, a: 1}
  m_AmbientEquatorColor: {r: 0.114, g: 0.125, b: 0.133, a: 1}
  m_AmbientGroundColor: {r: 0.047, g: 0.043, b: 0.035, a: 1}
  m_AmbientIntensity: 1
  m_AmbientMode: 0
  m_SubtractiveShadowColor: {r: 0.42, g: 0.478, b: 0.627, a: 1}
  m_SkyboxMaterial: {fileID: 2100000, guid: 71f14a2d79f732f4d9893ef1b911f4ff, type: 2}
  m_HaloStrength: 0.5
  m_FlareStrength: 1
  m_FlareFadeSpeed: 3
  m_HaloTexture: {fileID: 0}
  m_SpotCookie: {fileID: 10001, guid: 0000000000000000e000000000000000, type: 0}
  m_DefaultReflectionMode: 0
  m_DefaultReflectionResolution: 128
  m_ReflectionBounces: 1
  m_ReflectionIntensity: 1
  m_CustomReflection: {fileID: 0}
  m_Sun: {fileID: 0}
  m_IndirectSpecularColor: {r: 0, g: 0, b: 0, a: 1}
  m_UseRadianceAmbientProbe: 0
--- !u!157 &3
LightmapSettings:
  m_ObjectHideFlags: 0
  serializedVersion: 11
  m_GIWorkflowMode: 0
  m_GISettings:
    serializedVersion: 2
    m_BounceScale: 1
    m_IndirectOutputScale: 1
    m_AlbedoBoost: 1
    m_EnvironmentLightingMode: 0
    m_EnableBakedLightmaps: 1
    m_EnableRealtimeLightmaps: 1
  m_LightmapEditorSettings:
    serializedVersion: 12
    m_Resolution: 2
    m_BakeResolution: 40
    m_AtlasSize: 1024
    m_AO: 0
    m_AOMaxDistance: 1
    m_CompAOExponent: 0
    m_CompAOExponentDirect: 0
    m_ExtractAmbientOcclusion: 0
    m_Padding: 2
    m_LightmapParameters: {fileID: 0}
    m_LightmapsBakeMode: 1
    m_TextureCompression: 1
    m_FinalGather: 0
    m_FinalGatherFiltering: 1
    m_FinalGatherRayCount: 1024
    m_ReflectionCompression: 2
    m_MixedBakeMode: 1
    m_BakeBackend: 0
    m_PVRSampling: 1
    m_PVRDirectSampleCount: 32
    m_PVRSampleCount: 512
    m_PVRBounces: 2
    m_PVREnvironmentSampleCount: 512
    m_PVREnvironmentReferencePointCount: 2048
    m_PVRFilteringMode: 0
    m_PVRDenoiserTypeDirect: 0
    m_PVRDenoiserTypeIndirect: 0
    m_PVRDenoiserTypeAO: 0
    m_PVRFilterTypeDirect: 0
    m_PVRFilterTypeIndirect: 0
    m_PVRFilterTypeAO: 0
    m_PVREnvironmentMIS: 0
    m_PVRCulling: 1
    m_PVRFilteringGaussRadiusDirect: 1
    m_PVRFilteringGaussRadiusIndirect: 5
    m_PVRFilteringGaussRadiusAO: 2
    m_PVRFilteringAtrousPositionSigmaDirect: 0.5
    m_PVRFilteringAtrousPositionSigmaIndirect: 2
    m_PVRFilteringAtrousPositionSigmaAO: 1
    m_ExportTrainingData: 0
    m_TrainingDataDestination: TrainingData
    m_LightProbeSampleCountMultiplier: 4
  m_LightingDataAsset: {fileID: 0}
  m_UseShadowmask: 0
--- !u!196 &4
NavMeshSettings:
  serializedVersion: 2
  m_ObjectHideFlags: 0
  m_BuildSettings:
    serializedVersion: 2
    agentTypeID: 0
    agentRadius: 0.5
    agentHeight: 2
    agentSlope: 45
    agentClimb: 0.4
    ledgeDropHeight: 0
    maxJumpAcrossDistance: 0
    minRegionArea: 2
    manualCellSize: 0
    cellSize: 0.16666667
    manualTileSize: 0
    tileSize: 256
    accuratePlacement: 0
    debug:
      m_Flags: 0
  m_NavMeshData: {fileID: 0}
--- !u!1001 &42565058
PrefabInstance:
  m_ObjectHideFlags: 0
  serializedVersion: 2
  m_Modification:
    m_TransformParent: {fileID: 0}
    m_Modifications:
    - target: {fileID: 113618, guid: 42b53ee6b3b137c479477d82730d42dd, type: 3}
      propertyPath: m_Name
      value: FluidBlock64k
      objectReference: {fileID: 0}
    - target: {fileID: 486914, guid: 42b53ee6b3b137c479477d82730d42dd, type: 3}
      propertyPath: m_LocalPosition.x
      value: -27
      objectReference: {fileID: 0}
    - target: {fileID: 486914, guid: 42b53ee6b3b137c479477d82730d42dd, type: 3}
      propertyPath: m_LocalPosition.y
      value: 51.9
      objectReference: {fileID: 0}
    - target: {fileID: 486914, guid: 42b53ee6b3b137c479477d82730d42dd, type: 3}
      propertyPath: m_LocalPosition.z
      value: -20.7
      objectReference: {fileID: 0}
    - target: {fileID: 486914, guid: 42b53ee6b3b137c479477d82730d42dd, type: 3}
      propertyPath: m_LocalRotation.x
      value: 0
      objectReference: {fileID: 0}
    - target: {fileID: 486914, guid: 42b53ee6b3b137c479477d82730d42dd, type: 3}
      propertyPath: m_LocalRotation.y
      value: 0
      objectReference: {fileID: 0}
    - target: {fileID: 486914, guid: 42b53ee6b3b137c479477d82730d42dd, type: 3}
      propertyPath: m_LocalRotation.z
      value: 0
      objectReference: {fileID: 0}
    - target: {fileID: 486914, guid: 42b53ee6b3b137c479477d82730d42dd, type: 3}
      propertyPath: m_LocalRotation.w
      value: 1
      objectReference: {fileID: 0}
    - target: {fileID: 486914, guid: 42b53ee6b3b137c479477d82730d42dd, type: 3}
      propertyPath: m_RootOrder
      value: 5
      objectReference: {fileID: 0}
    m_RemovedComponents: []
  m_SourcePrefab: {fileID: 100100000, guid: 42b53ee6b3b137c479477d82730d42dd, type: 3}
--- !u!1001 &970473917
PrefabInstance:
  m_ObjectHideFlags: 0
  serializedVersion: 2
  m_Modification:
    m_TransformParent: {fileID: 0}
    m_Modifications:
    - target: {fileID: 427890, guid: a85eb22e2f1cf8a41b21be031229149d, type: 3}
      propertyPath: m_LocalPosition.x
      value: 0
      objectReference: {fileID: 0}
    - target: {fileID: 427890, guid: a85eb22e2f1cf8a41b21be031229149d, type: 3}
      propertyPath: m_LocalPosition.y
      value: -6
      objectReference: {fileID: 0}
    - target: {fileID: 427890, guid: a85eb22e2f1cf8a41b21be031229149d, type: 3}
      propertyPath: m_LocalPosition.z
      value: 0
      objectReference: {fileID: 0}
    - target: {fileID: 427890, guid: a85eb22e2f1cf8a41b21be031229149d, type: 3}
      propertyPath: m_LocalRotation.x
      value: 0
      objectReference: {fileID: 0}
    - target: {fileID: 427890, guid: a85eb22e2f1cf8a41b21be031229149d, type: 3}
      propertyPath: m_LocalRotation.y
      value: 0
      objectReference: {fileID: 0}
    - target: {fileID: 427890, guid: a85eb22e2f1cf8a41b21be031229149d, type: 3}
      propertyPath: m_LocalRotation.z
      value: 0
      objectReference: {fileID: 0}
    - target: {fileID: 427890, guid: a85eb22e2f1cf8a41b21be031229149d, type: 3}
      propertyPath: m_LocalRotation.w
      value: 1
      objectReference: {fileID: 0}
    - target: {fileID: 427890, guid: a85eb22e2f1cf8a41b21be031229149d, type: 3}
      propertyPath: m_RootOrder
      value: 4
      objectReference: {fileID: 0}
    - target: {fileID: 2391500, guid: a85eb22e2f1cf8a41b21be031229149d, type: 3}
      propertyPath: m_Materials.Array.data[0]
      value: 
      objectReference: {fileID: 2100000, guid: 126c74a6f1e875548baded72003eebf7, type: 2}
    - target: {fileID: 3385188, guid: a85eb22e2f1cf8a41b21be031229149d, type: 3}
      propertyPath: m_Mesh
      value: 
      objectReference: {fileID: 4300000, guid: 083d11e222acee74a9754a19ff895603, type: 2}
    - target: {fileID: 6410036, guid: a85eb22e2f1cf8a41b21be031229149d, type: 3}
      propertyPath: m_Mesh
      value: 
      objectReference: {fileID: 4300000, guid: 083d11e222acee74a9754a19ff895603, type: 2}
    m_RemovedComponents: []
  m_SourcePrefab: {fileID: 100100000, guid: a85eb22e2f1cf8a41b21be031229149d, type: 3}
--- !u!1 &1107139068
GameObject:
  m_ObjectHideFlags: 0
  m_CorrespondingSourceObject: {fileID: 198244, guid: 42ad31205b7cf6244ad8593b47980560,
    type: 3}
  m_PrefabInstance: {fileID: 0}
  m_PrefabAsset: {fileID: 0}
  serializedVersion: 6
  m_Component:
  - component: {fileID: 1107139076}
  - component: {fileID: 1107139075}
  - component: {fileID: 1107139073}
  - component: {fileID: 1107139072}
  - component: {fileID: 1107139071}
  - component: {fileID: 1107139070}
  - component: {fileID: 1107139069}
  m_Layer: 0
  m_Name: Main Camera
  m_TagString: MainCamera
  m_Icon: {fileID: 0}
  m_NavMeshLayer: 0
  m_StaticEditorFlags: 0
  m_IsActive: 1
--- !u!114 &1107139069
MonoBehaviour:
  m_ObjectHideFlags: 0
  m_CorrespondingSourceObject: {fileID: 11460454, guid: 42ad31205b7cf6244ad8593b47980560,
    type: 3}
  m_PrefabInstance: {fileID: 0}
  m_PrefabAsset: {fileID: 0}
  m_GameObject: {fileID: 1107139068}
  m_Enabled: 1
  m_EditorHideFlags: 0
  m_Script: {fileID: 11500000, guid: 4af79bff163c71542827e3e44ccf2762, type: 3}
  m_Name: 
  m_EditorClassIdentifier: 
  shader: {fileID: 4800000, guid: 94100cc137c8fd047b107456c99ecfa7, type: 3}
  m_color: {r: 0, g: 0.47794116, b: 0.023073062, a: 1}
  m_specular: {r: 1, g: 0.80689657, b: 0, a: 1}
  m_shininess: 32
  m_reflection: 0.3
  m_reflectionFalloff: 10
  m_maxDepth: 0.999
  m_blurredDepthTexture: {fileID: 8400000, guid: 5cb8e850653248940b10cb45864b3e61,
    type: 2}
  m_cubemap: {fileID: 8900000, guid: 1cde0e200e792cb4491204276a656490, type: 3}
--- !u!114 &1107139070
MonoBehaviour:
  m_ObjectHideFlags: 0
  m_CorrespondingSourceObject: {fileID: 11478620, guid: 42ad31205b7cf6244ad8593b47980560,
    type: 3}
  m_PrefabInstance: {fileID: 0}
  m_PrefabAsset: {fileID: 0}
  m_GameObject: {fileID: 1107139068}
  m_Enabled: 1
  m_EditorHideFlags: 0
  m_Script: {fileID: 11500000, guid: bd349a3df11e0e342805d61ef5a6129a, type: 3}
  m_Name: 
  m_EditorClassIdentifier: 
--- !u!114 &1107139071
MonoBehaviour:
  m_ObjectHideFlags: 0
  m_CorrespondingSourceObject: {fileID: 11441718, guid: 42ad31205b7cf6244ad8593b47980560,
    type: 3}
  m_PrefabInstance: {fileID: 0}
  m_PrefabAsset: {fileID: 0}
  m_GameObject: {fileID: 1107139068}
  m_Enabled: 1
  m_EditorHideFlags: 0
  m_Script: {fileID: 11500000, guid: 1dbd3555199a9a64da7f27bb723bbeb8, type: 3}
  m_Name: 
  m_EditorClassIdentifier: 
  cameraSensitivity: 90
  climbSpeed: 4
  normalMoveSpeed: 10
  fastMoveFactor: 3
  dragBtn: 324
  rotationX: 0
  rotationY: 0
--- !u!81 &1107139072
AudioListener:
  m_ObjectHideFlags: 0
  m_CorrespondingSourceObject: {fileID: 8190404, guid: 42ad31205b7cf6244ad8593b47980560,
    type: 3}
  m_PrefabInstance: {fileID: 0}
  m_PrefabAsset: {fileID: 0}
  m_GameObject: {fileID: 1107139068}
  m_Enabled: 1
--- !u!124 &1107139073
Behaviour:
  m_ObjectHideFlags: 0
  m_CorrespondingSourceObject: {fileID: 12496948, guid: 42ad31205b7cf6244ad8593b47980560,
    type: 3}
  m_PrefabInstance: {fileID: 0}
  m_PrefabAsset: {fileID: 0}
  m_GameObject: {fileID: 1107139068}
  m_Enabled: 1
--- !u!20 &1107139075
Camera:
  m_ObjectHideFlags: 0
  m_CorrespondingSourceObject: {fileID: 2069034, guid: 42ad31205b7cf6244ad8593b47980560,
    type: 3}
  m_PrefabInstance: {fileID: 0}
  m_PrefabAsset: {fileID: 0}
  m_GameObject: {fileID: 1107139068}
  m_Enabled: 1
  serializedVersion: 2
  m_ClearFlags: 1
  m_BackGroundColor: {r: 0.19215687, g: 0.3019608, b: 0.4745098, a: 0.019607844}
  m_projectionMatrixMode: 1
  m_GateFitMode: 2
  m_FOVAxisMode: 0
  m_SensorSize: {x: 36, y: 24}
  m_LensShift: {x: 0, y: 0}
  m_FocalLength: 50
  m_NormalizedViewPortRect:
    serializedVersion: 2
    x: 0
    y: 0
    width: 1
    height: 1
  near clip plane: 0.3
  far clip plane: 1000
  field of view: 60
  orthographic: 0
  orthographic size: 5
  m_Depth: -1
  m_CullingMask:
    serializedVersion: 2
    m_Bits: 4294967295
  m_RenderingPath: 1
  m_TargetTexture: {fileID: 0}
  m_TargetDisplay: 0
  m_TargetEye: 3
  m_HDR: 0
  m_AllowMSAA: 1
  m_AllowDynamicResolution: 0
  m_ForceIntoRT: 0
  m_OcclusionCulling: 0
  m_StereoConvergence: 10
  m_StereoSeparation: 0.022
--- !u!4 &1107139076
Transform:
  m_ObjectHideFlags: 0
  m_CorrespondingSourceObject: {fileID: 438786, guid: 42ad31205b7cf6244ad8593b47980560,
    type: 3}
  m_PrefabInstance: {fileID: 0}
  m_PrefabAsset: {fileID: 0}
  m_GameObject: {fileID: 1107139068}
  m_LocalRotation: {x: 0, y: 0, z: 0, w: 1}
  m_LocalPosition: {x: 0, y: 30.3, z: -94.5}
  m_LocalScale: {x: 1, y: 1, z: 1}
  m_Children: []
  m_Father: {fileID: 0}
  m_RootOrder: 0
  m_LocalEulerAnglesHint: {x: 0, y: 0, z: 0}
--- !u!1 &1326560756
GameObject:
  m_ObjectHideFlags: 0
  m_CorrespondingSourceObject: {fileID: 176192, guid: d93c116cac5c4464cba518c1bd2ee69a,
    type: 3}
  m_PrefabInstance: {fileID: 0}
  m_PrefabAsset: {fileID: 0}
  serializedVersion: 6
  m_Component:
  - component: {fileID: 1326560760}
  - component: {fileID: 1326560759}
  - component: {fileID: 1326560757}
  - component: {fileID: 1735496611}
  - component: {fileID: 1326560758}
  m_Layer: 0
  m_Name: Flex
  m_TagString: Untagged
  m_Icon: {fileID: 0}
  m_NavMeshLayer: 0
  m_StaticEditorFlags: 0
  m_IsActive: 1
--- !u!114 &1326560757
MonoBehaviour:
  m_ObjectHideFlags: 0
  m_CorrespondingSourceObject: {fileID: 11437460, guid: d93c116cac5c4464cba518c1bd2ee69a,
    type: 3}
  m_PrefabInstance: {fileID: 0}
  m_PrefabAsset: {fileID: 0}
  m_GameObject: {fileID: 1326560756}
  m_Enabled: 1
  m_EditorHideFlags: 0
  m_Script: {fileID: 11500000, guid: a6123c0b847f93649a4f4bdf3448637f, type: 3}
  m_Name: 
  m_EditorClassIdentifier: 
  m_RelaxationMode: 1
  m_relaxationFactor: 1
  m_numIterations: 1
  m_radius: 1
  m_solidRestDistance: 1
  m_fluidRestDistance: 0.6
  m_dynamicFriction: 0.2
  m_staticFriction: 0
  m_particleFriction: 0.1
  m_restitution: 0
  m_adhesion: 0.01
  m_plasticThreshold: 0
  m_plasticCreep: 0
  m_CollisionDistance: 0.25
  m_ParticleCollisionMargin: 0.1
  m_ShapeCollisionMargin: 0.1
  m_sleepThreshold: 0
  m_MaxSpeed: 3.4028235e+38
  m_shockPropagation: 0
  m_dissipation: 0
  m_damping: 0
  m_inertiaBias: 0.001
  m_Fluid: 1
  m_cohesion: 0.1
  m_surfaceTension: 0.01
  m_viscosity: 100
  m_vorticityConfinement: 0
  m_solidPressure: 1
  m_freeSurfaceDrag: 0
  m_buoyancy: 1
  m_Wind: {x: 0, y: 0, z: 0}
  m_Drag: 0
  m_Lift: 0
  m_Smoothing: 1
  m_AnisotropyScale: 1
  m_AnisotropyMin: 0.1
  m_AnisotropyMax: 2
  m_DiffuseThreshold: 0
  m_DiffuseBuoyancy: 0
  m_DiffuseDrag: 0
  m_DiffuseBallistic: 16
  m_DiffuseSortAxis: {x: 0, y: 0, z: 0}
  m_DiffuseLifetime: 2
  m_NumPlanes: 1
  m_Planes:
  - 0
  - 1
  - 0
  - 0
  m_gravity: {x: 0, y: -9.81, z: 0}
--- !u!114 &1326560758
MonoBehaviour:
  m_ObjectHideFlags: 0
  m_CorrespondingSourceObject: {fileID: 11422818, guid: d93c116cac5c4464cba518c1bd2ee69a,
    type: 3}
  m_PrefabInstance: {fileID: 0}
  m_PrefabAsset: {fileID: 0}
  m_GameObject: {fileID: 1326560756}
  m_Enabled: 1
  m_EditorHideFlags: 0
  m_Script: {fileID: 11500000, guid: 1ac6a7e0279756a45876ac9c789cc9b8, type: 3}
  m_Name: 
  m_EditorClassIdentifier: 
  m_meshColliders: []
  m_collidersCount: 0
  m_collidersPositions: []
  m_collidersPrevPositions: []
  m_collidersRotations: []
  m_collidersPrevRotations: []
  m_collidersAabbMin: []
  m_collidersAabbMax: []
  m_collidersStarts: 
  m_collidersFlags: 
--- !u!114 &1326560759
MonoBehaviour:
  m_ObjectHideFlags: 0
  m_CorrespondingSourceObject: {fileID: 11408202, guid: d93c116cac5c4464cba518c1bd2ee69a,
    type: 3}
  m_PrefabInstance: {fileID: 0}
  m_PrefabAsset: {fileID: 0}
  m_GameObject: {fileID: 1326560756}
  m_Enabled: 1
  m_EditorHideFlags: 0
  m_Script: {fileID: 11500000, guid: 65ca5a3054b467442bd1f58588839558, type: 3}
  m_Name: 
  m_EditorClassIdentifier: 
  m_fixedTimeStepMult: 1
  m_maxNeighboursCount: 128
  m_solverSubSteps: 1
  m_dynamic: 1
  m_cntr: {fileID: 0}
  m_diffuseParticles: {fileID: 0}
  m_colliders: {fileID: 0}
  m_parameters: {fileID: 0}
--- !u!4 &1326560760
Transform:
  m_ObjectHideFlags: 0
  m_CorrespondingSourceObject: {fileID: 495926, guid: d93c116cac5c4464cba518c1bd2ee69a,
    type: 3}
  m_PrefabInstance: {fileID: 0}
  m_PrefabAsset: {fileID: 0}
  m_GameObject: {fileID: 1326560756}
  m_LocalRotation: {x: 0, y: 0, z: 0, w: 1}
  m_LocalPosition: {x: 19.70581, y: 5.7218575, z: -12.286327}
  m_LocalScale: {x: 1, y: 1, z: 1}
  m_Children: []
  m_Father: {fileID: 0}
  m_RootOrder: 2
  m_LocalEulerAnglesHint: {x: 0, y: 0, z: 0}
--- !u!1 &1539021401
GameObject:
  m_ObjectHideFlags: 0
  m_CorrespondingSourceObject: {fileID: 0}
  m_PrefabInstance: {fileID: 0}
  m_PrefabAsset: {fileID: 0}
  serializedVersion: 6
  m_Component:
  - component: {fileID: 1539021403}
  - component: {fileID: 1539021402}
  m_Layer: 0
  m_Name: Directional Light
  m_TagString: Untagged
  m_Icon: {fileID: 0}
  m_NavMeshLayer: 0
  m_StaticEditorFlags: 0
  m_IsActive: 1
--- !u!108 &1539021402
Light:
  m_ObjectHideFlags: 0
  m_CorrespondingSourceObject: {fileID: 0}
  m_PrefabInstance: {fileID: 0}
  m_PrefabAsset: {fileID: 0}
  m_GameObject: {fileID: 1539021401}
  m_Enabled: 1
  serializedVersion: 10
  m_Type: 1
  m_Shape: 0
  m_Color: {r: 1, g: 0.95686275, b: 0.8392157, a: 1}
  m_Intensity: 1
  m_Range: 10
  m_SpotAngle: 30
  m_InnerSpotAngle: 21.80208
  m_CookieSize: 10
  m_Shadows:
    m_Type: 2
    m_Resolution: -1
    m_CustomResolution: -1
    m_Strength: 1
    m_Bias: 0.05
    m_NormalBias: 0.4
    m_NearPlane: 0.2
    m_CullingMatrixOverride:
      e00: 1
      e01: 0
      e02: 0
      e03: 0
      e10: 0
      e11: 1
      e12: 0
      e13: 0
      e20: 0
      e21: 0
      e22: 1
      e23: 0
      e30: 0
      e31: 0
      e32: 0
      e33: 1
    m_UseCullingMatrixOverride: 0
  m_Cookie: {fileID: 0}
  m_DrawHalo: 0
  m_Flare: {fileID: 0}
  m_RenderMode: 0
  m_CullingMask:
    serializedVersion: 2
    m_Bits: 4294967295
  m_RenderingLayerMask: 1
  m_Lightmapping: 4
  m_LightShadowCasterMode: 0
  m_AreaSize: {x: 1, y: 1}
  m_BounceIntensity: 1
  m_ColorTemperature: 6570
  m_UseColorTemperature: 0
  m_BoundingSphereOverride: {x: 0, y: 0, z: 0, w: 0}
  m_UseBoundingSphereOverride: 0
  m_ShadowRadius: 0
  m_ShadowAngle: 0
--- !u!4 &1539021403
Transform:
  m_ObjectHideFlags: 0
  m_CorrespondingSourceObject: {fileID: 0}
  m_PrefabInstance: {fileID: 0}
  m_PrefabAsset: {fileID: 0}
  m_GameObject: {fileID: 1539021401}
  m_LocalRotation: {x: 0.29016942, y: -0.040912297, z: -0.28060794, w: 0.9139952}
  m_LocalPosition: {x: -25.8, y: 47, z: -13.1}
  m_LocalScale: {x: 1, y: 1, z: 1}
  m_Children: []
  m_Father: {fileID: 0}
  m_RootOrder: 1
  m_LocalEulerAnglesHint: {x: 30.4952, y: -16.0088, z: -38.524498}
--- !u!114 &1735496611
MonoBehaviour:
  m_ObjectHideFlags: 0
  m_CorrespondingSourceObject: {fileID: 11444918, guid: d93c116cac5c4464cba518c1bd2ee69a,
    type: 3}
  m_PrefabInstance: {fileID: 0}
  m_PrefabAsset: {fileID: 0}
  m_GameObject: {fileID: 1326560756}
  m_Enabled: 1
  m_EditorHideFlags: 0
  m_Script: {fileID: 11500000, guid: 47450b37dade5ea4b95b782db04c12a0, type: 3}
  m_Name: 
  m_EditorClassIdentifier: 
  m_flexGameObjects: []
  m_maxParticlesCount: 65536
  m_activeInstacesCount: 0
  m_particlesCount: 0
  m_activeParticlesCount: 0
  m_springsCount: 0
  m_shapesCount: 0
  m_shapeIndicesCount: 0
  m_trianglesCount: 0
  m_inflatablesCount: 0
  m_smoothedParticles: []
  m_particles: []
  m_restParticles: []
  m_velocities: []
  m_normals: []
  m_colors: []
  m_phases: 
  m_densities: []
  m_activeSet: 
  m_particlesActivity: 
  m_springIndices: 
  m_springRestLengths: []
  m_springCoefficients: []
  m_shapeIndices: 
  m_shapeOffsets: 
  m_shapeCenters: []
  m_shapeRestPositions: []
  m_shapeCoefficients: []
  m_shapeTranslations: []
  m_shapeTranslationsShift: []
  m_shapeRotations: []
  m_triangleIndices: 
  m_triangleNormals: []
  m_inflatableStarts: 
  m_inflatableCounts: 
  m_inflatableVolumes: []
  m_inflatableStiffness: []
  m_inflatablePressures: []
--- !u!1 &2053641217
GameObject:
  m_ObjectHideFlags: 0
  m_CorrespondingSourceObject: {fileID: 0}
  m_PrefabInstance: {fileID: 0}
  m_PrefabAsset: {fileID: 0}
  serializedVersion: 6
  m_Component:
  - component: {fileID: 2053641221}
  - component: {fileID: 2053641220}
  - component: {fileID: 2053641218}
  m_Layer: 0
  m_Name: Plane
  m_TagString: Untagged
  m_Icon: {fileID: 0}
  m_NavMeshLayer: 0
  m_StaticEditorFlags: 0
  m_IsActive: 1
--- !u!23 &2053641218
MeshRenderer:
  m_ObjectHideFlags: 0
  m_CorrespondingSourceObject: {fileID: 0}
  m_PrefabInstance: {fileID: 0}
  m_PrefabAsset: {fileID: 0}
  m_GameObject: {fileID: 2053641217}
  m_Enabled: 1
  m_CastShadows: 1
  m_ReceiveShadows: 1
  m_DynamicOccludee: 1
  m_MotionVectors: 1
  m_LightProbeUsage: 1
  m_ReflectionProbeUsage: 1
  m_RayTracingMode: 2
  m_RenderingLayerMask: 1
  m_RendererPriority: 0
  m_Materials:
  - {fileID: 10303, guid: 0000000000000000f000000000000000, type: 0}
  m_StaticBatchInfo:
    firstSubMesh: 0
    subMeshCount: 0
  m_StaticBatchRoot: {fileID: 0}
  m_ProbeAnchor: {fileID: 0}
  m_LightProbeVolumeOverride: {fileID: 0}
  m_ScaleInLightmap: 1
  m_ReceiveGI: 1
  m_PreserveUVs: 1
  m_IgnoreNormalsForChartDetection: 0
  m_ImportantGI: 0
  m_StitchLightmapSeams: 1
  m_SelectedEditorRenderState: 3
  m_MinimumChartSize: 4
  m_AutoUVMaxDistance: 0.5
  m_AutoUVMaxAngle: 89
  m_LightmapParameters: {fileID: 0}
  m_SortingLayerID: 0
  m_SortingLayer: 0
  m_SortingOrder: 0
--- !u!33 &2053641220
MeshFilter:
  m_ObjectHideFlags: 0
  m_CorrespondingSourceObject: {fileID: 0}
  m_PrefabInstance: {fileID: 0}
  m_PrefabAsset: {fileID: 0}
  m_GameObject: {fileID: 2053641217}
  m_Mesh: {fileID: 10209, guid: 0000000000000000e000000000000000, type: 0}
--- !u!4 &2053641221
Transform:
  m_ObjectHideFlags: 0
  m_CorrespondingSourceObject: {fileID: 0}
  m_PrefabInstance: {fileID: 0}
  m_PrefabAsset: {fileID: 0}
  m_GameObject: {fileID: 2053641217}
  m_LocalRotation: {x: 0, y: 0, z: 0, w: 1}
  m_LocalPosition: {x: 0, y: 0, z: 0}
  m_LocalScale: {x: 100, y: 100, z: 100}
  m_Children: []
  m_Father: {fileID: 0}
  m_RootOrder: 3
  m_LocalEulerAnglesHint: {x: 0, y: 0, z: 0}
