%YAML 1.1
%TAG !u! tag:unity3d.com,2011:
--- !u!29 &1
OcclusionCullingSettings:
  m_ObjectHideFlags: 0
  serializedVersion: 2
  m_OcclusionBakeSettings:
    smallestOccluder: 5
    smallestHole: 0.25
    backfaceThreshold: 100
  m_SceneGUID: 00000000000000000000000000000000
  m_OcclusionCullingData: {fileID: 0}
--- !u!104 &2
RenderSettings:
  m_ObjectHideFlags: 0
  serializedVersion: 9
  m_Fog: 0
  m_FogColor: {r: 0.5, g: 0.5, b: 0.5, a: 1}
  m_FogMode: 3
  m_FogDensity: 0.01
  m_LinearFogStart: 0
  m_LinearFogEnd: 300
  m_AmbientSkyColor: {r: 0.17384, g: 0.18614, b: 0.21238, a: 0.82}
  m_AmbientEquatorColor: {r: 0.09348, g: 0.1025, b: 0.10906, a: 0.82}
  m_AmbientGroundColor: {r: 0.03854, g: 0.03526, b: 0.0287, a: 0.82}
  m_AmbientIntensity: 0.82
  m_AmbientMode: 0
  m_SubtractiveShadowColor: {r: 0.42, g: 0.478, b: 0.627, a: 1}
  m_SkyboxMaterial: {fileID: 10304, guid: 0000000000000000f000000000000000, type: 0}
  m_HaloStrength: 0.5
  m_FlareStrength: 1
  m_FlareFadeSpeed: 3
  m_HaloTexture: {fileID: 0}
  m_SpotCookie: {fileID: 10001, guid: 0000000000000000e000000000000000, type: 0}
  m_DefaultReflectionMode: 0
  m_DefaultReflectionResolution: 128
  m_ReflectionBounces: 1
  m_ReflectionIntensity: 1
  m_CustomReflection: {fileID: 0}
  m_Sun: {fileID: 1539021402}
  m_IndirectSpecularColor: {r: 0, g: 0, b: 0, a: 1}
  m_UseRadianceAmbientProbe: 0
--- !u!157 &3
LightmapSettings:
  m_ObjectHideFlags: 0
  serializedVersion: 11
  m_GIWorkflowMode: 0
  m_GISettings:
    serializedVersion: 2
    m_BounceScale: 1
    m_IndirectOutputScale: 1
    m_AlbedoBoost: 1
    m_EnvironmentLightingMode: 0
    m_EnableBakedLightmaps: 1
    m_EnableRealtimeLightmaps: 1
  m_LightmapEditorSettings:
    serializedVersion: 12
    m_Resolution: 2
    m_BakeResolution: 40
    m_AtlasSize: 1024
    m_AO: 1
    m_AOMaxDistance: 1
    m_CompAOExponent: 10
    m_CompAOExponentDirect: 0
    m_ExtractAmbientOcclusion: 0
    m_Padding: 2
    m_LightmapParameters: {fileID: 0}
    m_LightmapsBakeMode: 1
    m_TextureCompression: 1
    m_FinalGather: 0
    m_FinalGatherFiltering: 1
    m_FinalGatherRayCount: 1024
    m_ReflectionCompression: 2
    m_MixedBakeMode: 1
    m_BakeBackend: 0
    m_PVRSampling: 1
    m_PVRDirectSampleCount: 32
    m_PVRSampleCount: 512
    m_PVRBounces: 2
    m_PVREnvironmentSampleCount: 512
    m_PVREnvironmentReferencePointCount: 2048
    m_PVRFilteringMode: 0
    m_PVRDenoiserTypeDirect: 0
    m_PVRDenoiserTypeIndirect: 0
    m_PVRDenoiserTypeAO: 0
    m_PVRFilterTypeDirect: 0
    m_PVRFilterTypeIndirect: 0
    m_PVRFilterTypeAO: 0
    m_PVREnvironmentMIS: 0
    m_PVRCulling: 1
    m_PVRFilteringGaussRadiusDirect: 1
    m_PVRFilteringGaussRadiusIndirect: 5
    m_PVRFilteringGaussRadiusAO: 2
    m_PVRFilteringAtrousPositionSigmaDirect: 0.5
    m_PVRFilteringAtrousPositionSigmaIndirect: 2
    m_PVRFilteringAtrousPositionSigmaAO: 1
    m_ExportTrainingData: 0
    m_TrainingDataDestination: TrainingData
    m_LightProbeSampleCountMultiplier: 4
  m_LightingDataAsset: {fileID: 0}
  m_UseShadowmask: 0
--- !u!196 &4
NavMeshSettings:
  serializedVersion: 2
  m_ObjectHideFlags: 0
  m_BuildSettings:
    serializedVersion: 2
    agentTypeID: 0
    agentRadius: 0.5
    agentHeight: 2
    agentSlope: 45
    agentClimb: 0.4
    ledgeDropHeight: 0
    maxJumpAcrossDistance: 0
    minRegionArea: 2
    manualCellSize: 0
    cellSize: 0.16666667
    manualTileSize: 0
    tileSize: 256
    accuratePlacement: 0
    debug:
      m_Flags: 0
  m_NavMeshData: {fileID: 0}
--- !u!114 &116362388 stripped
MonoBehaviour:
  m_CorrespondingSourceObject: {fileID: 11492688, guid: 7aae0586f5a9bf2479f9423b516532f7,
    type: 3}
  m_PrefabInstance: {fileID: 627640933}
  m_PrefabAsset: {fileID: 0}
  m_GameObject: {fileID: 0}
  m_Enabled: 1
  m_EditorHideFlags: 0
  m_Script: {fileID: 11500000, guid: 62ee2acd474d24a47ae16541e4f523f8, type: 3}
  m_Name: 
  m_EditorClassIdentifier: 
--- !u!1 &198344638 stripped
GameObject:
  m_CorrespondingSourceObject: {fileID: 100000, guid: 74aced4ac541a4c47b19cae759c1a617,
    type: 3}
  m_PrefabInstance: {fileID: 916392973}
  m_PrefabAsset: {fileID: 0}
--- !u!64 &198344642
MeshCollider:
  m_ObjectHideFlags: 0
  m_CorrespondingSourceObject: {fileID: 0}
  m_PrefabInstance: {fileID: 0}
  m_PrefabAsset: {fileID: 0}
  m_GameObject: {fileID: 198344638}
  m_Material: {fileID: 0}
  m_IsTrigger: 0
  m_Enabled: 1
  serializedVersion: 4
  m_Convex: 0
  m_CookingOptions: 30
  m_Mesh: {fileID: 4300000, guid: 74aced4ac541a4c47b19cae759c1a617, type: 3}
--- !u!114 &239673325 stripped
MonoBehaviour:
  m_CorrespondingSourceObject: {fileID: 11450324, guid: 7aae0586f5a9bf2479f9423b516532f7,
    type: 3}
  m_PrefabInstance: {fileID: 627640933}
  m_PrefabAsset: {fileID: 0}
  m_GameObject: {fileID: 0}
  m_Enabled: 1
  m_EditorHideFlags: 0
  m_Script: {fileID: 11500000, guid: 62ee2acd474d24a47ae16541e4f523f8, type: 3}
  m_Name: 
  m_EditorClassIdentifier: 
--- !u!1001 &392506245
PrefabInstance:
  m_ObjectHideFlags: 0
  serializedVersion: 2
  m_Modification:
    m_TransformParent: {fileID: 0}
    m_Modifications:
    - target: {fileID: 402802, guid: e468dd3651bceae4089677f96b8614bb, type: 3}
      propertyPath: m_LocalPosition.x
      value: 24.3431
      objectReference: {fileID: 0}
    - target: {fileID: 402802, guid: e468dd3651bceae4089677f96b8614bb, type: 3}
      propertyPath: m_LocalPosition.y
      value: 28.803034
      objectReference: {fileID: 0}
    - target: {fileID: 402802, guid: e468dd3651bceae4089677f96b8614bb, type: 3}
      propertyPath: m_LocalPosition.z
      value: -39.211796
      objectReference: {fileID: 0}
    - target: {fileID: 402802, guid: e468dd3651bceae4089677f96b8614bb, type: 3}
      propertyPath: m_LocalRotation.x
      value: 0
      objectReference: {fileID: 0}
    - target: {fileID: 402802, guid: e468dd3651bceae4089677f96b8614bb, type: 3}
      propertyPath: m_LocalRotation.y
      value: 0
      objectReference: {fileID: 0}
    - target: {fileID: 402802, guid: e468dd3651bceae4089677f96b8614bb, type: 3}
      propertyPath: m_LocalRotation.z
      value: 0
      objectReference: {fileID: 0}
    - target: {fileID: 402802, guid: e468dd3651bceae4089677f96b8614bb, type: 3}
      propertyPath: m_LocalRotation.w
      value: 1
      objectReference: {fileID: 0}
    - target: {fileID: 402802, guid: e468dd3651bceae4089677f96b8614bb, type: 3}
      propertyPath: m_RootOrder
      value: 6
      objectReference: {fileID: 0}
    m_RemovedComponents: []
  m_SourcePrefab: {fileID: 100100000, guid: e468dd3651bceae4089677f96b8614bb, type: 3}
--- !u!1 &431674821
GameObject:
  m_ObjectHideFlags: 0
  m_CorrespondingSourceObject: {fileID: 0}
  m_PrefabInstance: {fileID: 0}
  m_PrefabAsset: {fileID: 0}
  serializedVersion: 6
  m_Component:
  - component: {fileID: 431674826}
  - component: {fileID: 431674825}
  - component: {fileID: 431674823}
  - component: {fileID: 431674822}
  - component: {fileID: 431674827}
  - component: {fileID: 431674828}
  m_Layer: 0
  m_Name: Main Camera
  m_TagString: MainCamera
  m_Icon: {fileID: 0}
  m_NavMeshLayer: 0
  m_StaticEditorFlags: 0
  m_IsActive: 1
--- !u!81 &431674822
AudioListener:
  m_ObjectHideFlags: 0
  m_CorrespondingSourceObject: {fileID: 0}
  m_PrefabInstance: {fileID: 0}
  m_PrefabAsset: {fileID: 0}
  m_GameObject: {fileID: 431674821}
  m_Enabled: 1
--- !u!124 &431674823
Behaviour:
  m_ObjectHideFlags: 0
  m_CorrespondingSourceObject: {fileID: 0}
  m_PrefabInstance: {fileID: 0}
  m_PrefabAsset: {fileID: 0}
  m_GameObject: {fileID: 431674821}
  m_Enabled: 1
--- !u!20 &431674825
Camera:
  m_ObjectHideFlags: 0
  m_CorrespondingSourceObject: {fileID: 0}
  m_PrefabInstance: {fileID: 0}
  m_PrefabAsset: {fileID: 0}
  m_GameObject: {fileID: 431674821}
  m_Enabled: 1
  serializedVersion: 2
  m_ClearFlags: 2
  m_BackGroundColor: {r: 1, g: 1, b: 1, a: 0.019607844}
  m_projectionMatrixMode: 1
  m_GateFitMode: 2
  m_FOVAxisMode: 0
  m_SensorSize: {x: 36, y: 24}
  m_LensShift: {x: 0, y: 0}
  m_FocalLength: 50
  m_NormalizedViewPortRect:
    serializedVersion: 2
    x: 0
    y: 0
    width: 1
    height: 1
  near clip plane: 0.3
  far clip plane: 300
  field of view: 60
  orthographic: 0
  orthographic size: 5
  m_Depth: -1
  m_CullingMask:
    serializedVersion: 2
    m_Bits: 4294967295
  m_RenderingPath: -1
  m_TargetTexture: {fileID: 0}
  m_TargetDisplay: 0
  m_TargetEye: 3
  m_HDR: 0
  m_AllowMSAA: 1
  m_AllowDynamicResolution: 0
  m_ForceIntoRT: 0
  m_OcclusionCulling: 1
  m_StereoConvergence: 10
  m_StereoSeparation: 0.022
--- !u!4 &431674826
Transform:
  m_ObjectHideFlags: 0
  m_CorrespondingSourceObject: {fileID: 0}
  m_PrefabInstance: {fileID: 0}
  m_PrefabAsset: {fileID: 0}
  m_GameObject: {fileID: 431674821}
  m_LocalRotation: {x: 0.2904008, y: 0, z: 0, w: 0.9569051}
  m_LocalPosition: {x: 0, y: 95.9, z: -77.4}
  m_LocalScale: {x: 1, y: 1, z: 1}
  m_Children: []
  m_Father: {fileID: 0}
  m_RootOrder: 0
  m_LocalEulerAnglesHint: {x: 33.7639, y: 0, z: 0}
--- !u!114 &431674827
MonoBehaviour:
  m_ObjectHideFlags: 0
  m_CorrespondingSourceObject: {fileID: 0}
  m_PrefabInstance: {fileID: 0}
  m_PrefabAsset: {fileID: 0}
  m_GameObject: {fileID: 431674821}
  m_Enabled: 1
  m_EditorHideFlags: 0
  m_Script: {fileID: 11500000, guid: 1dbd3555199a9a64da7f27bb723bbeb8, type: 3}
  m_Name: 
  m_EditorClassIdentifier: 
  cameraSensitivity: 90
  climbSpeed: 4
  normalMoveSpeed: 10
  fastMoveFactor: 3
  dragBtn: 324
  rotationX: 0
  rotationY: 0
--- !u!114 &431674828
MonoBehaviour:
  m_ObjectHideFlags: 0
  m_CorrespondingSourceObject: {fileID: 0}
  m_PrefabInstance: {fileID: 0}
  m_PrefabAsset: {fileID: 0}
  m_GameObject: {fileID: 431674821}
  m_Enabled: 1
  m_EditorHideFlags: 0
  m_Script: {fileID: 11500000, guid: bd349a3df11e0e342805d61ef5a6129a, type: 3}
  m_Name: 
  m_EditorClassIdentifier: 
--- !u!1001 &627640933
PrefabInstance:
  m_ObjectHideFlags: 0
  serializedVersion: 2
  m_Modification:
    m_TransformParent: {fileID: 0}
    m_Modifications:
    - target: {fileID: 474048, guid: 7aae0586f5a9bf2479f9423b516532f7, type: 3}
      propertyPath: m_LocalPosition.x
      value: -38.559437
      objectReference: {fileID: 0}
    - target: {fileID: 474048, guid: 7aae0586f5a9bf2479f9423b516532f7, type: 3}
      propertyPath: m_LocalPosition.y
      value: 103.79005
      objectReference: {fileID: 0}
    - target: {fileID: 474048, guid: 7aae0586f5a9bf2479f9423b516532f7, type: 3}
      propertyPath: m_LocalPosition.z
      value: -59.504955
      objectReference: {fileID: 0}
    - target: {fileID: 474048, guid: 7aae0586f5a9bf2479f9423b516532f7, type: 3}
      propertyPath: m_LocalRotation.x
      value: 0
      objectReference: {fileID: 0}
    - target: {fileID: 474048, guid: 7aae0586f5a9bf2479f9423b516532f7, type: 3}
      propertyPath: m_LocalRotation.y
      value: 0
      objectReference: {fileID: 0}
    - target: {fileID: 474048, guid: 7aae0586f5a9bf2479f9423b516532f7, type: 3}
      propertyPath: m_LocalRotation.z
      value: 0
      objectReference: {fileID: 0}
    - target: {fileID: 474048, guid: 7aae0586f5a9bf2479f9423b516532f7, type: 3}
      propertyPath: m_LocalRotation.w
      value: 1
      objectReference: {fileID: 0}
    - target: {fileID: 474048, guid: 7aae0586f5a9bf2479f9423b516532f7, type: 3}
      propertyPath: m_RootOrder
      value: 3
      objectReference: {fileID: 0}
    - target: {fileID: 11439736, guid: 7aae0586f5a9bf2479f9423b516532f7, type: 3}
      propertyPath: m_flexParticles
      value: 
      objectReference: {fileID: 239673325}
    - target: {fileID: 11447602, guid: 7aae0586f5a9bf2479f9423b516532f7, type: 3}
      propertyPath: m_flexParticles
      value: 
      objectReference: {fileID: 1958241800}
    - target: {fileID: 11455202, guid: 7aae0586f5a9bf2479f9423b516532f7, type: 3}
      propertyPath: m_flexParticles
      value: 
      objectReference: {fileID: 116362388}
    - target: {fileID: 11478304, guid: 7aae0586f5a9bf2479f9423b516532f7, type: 3}
      propertyPath: m_flexParticles
      value: 
      objectReference: {fileID: 1224932071}
    m_RemovedComponents: []
  m_SourcePrefab: {fileID: 100100000, guid: 7aae0586f5a9bf2479f9423b516532f7, type: 3}
--- !u!1001 &916392973
PrefabInstance:
  m_ObjectHideFlags: 0
  serializedVersion: 2
  m_Modification:
    m_TransformParent: {fileID: 0}
    m_Modifications:
    - target: {fileID: 100002, guid: 74aced4ac541a4c47b19cae759c1a617, type: 3}
      propertyPath: m_IsActive
      value: 0
      objectReference: {fileID: 0}
    - target: {fileID: 400002, guid: 74aced4ac541a4c47b19cae759c1a617, type: 3}
      propertyPath: m_LocalPosition.x
      value: 0
      objectReference: {fileID: 0}
    - target: {fileID: 400002, guid: 74aced4ac541a4c47b19cae759c1a617, type: 3}
      propertyPath: m_LocalPosition.y
      value: 21.1
      objectReference: {fileID: 0}
    - target: {fileID: 400002, guid: 74aced4ac541a4c47b19cae759c1a617, type: 3}
      propertyPath: m_LocalPosition.z
      value: 0
      objectReference: {fileID: 0}
    - target: {fileID: 400002, guid: 74aced4ac541a4c47b19cae759c1a617, type: 3}
      propertyPath: m_LocalRotation.x
      value: 0
      objectReference: {fileID: 0}
    - target: {fileID: 400002, guid: 74aced4ac541a4c47b19cae759c1a617, type: 3}
      propertyPath: m_LocalRotation.y
      value: 0
      objectReference: {fileID: 0}
    - target: {fileID: 400002, guid: 74aced4ac541a4c47b19cae759c1a617, type: 3}
      propertyPath: m_LocalRotation.z
      value: 0
      objectReference: {fileID: 0}
    - target: {fileID: 400002, guid: 74aced4ac541a4c47b19cae759c1a617, type: 3}
      propertyPath: m_LocalRotation.w
      value: 1
      objectReference: {fileID: 0}
    - target: {fileID: 400002, guid: 74aced4ac541a4c47b19cae759c1a617, type: 3}
      propertyPath: m_RootOrder
      value: 5
      objectReference: {fileID: 0}
    m_RemovedComponents: []
  m_SourcePrefab: {fileID: 100100000, guid: 74aced4ac541a4c47b19cae759c1a617, type: 3}
--- !u!114 &1224932071 stripped
MonoBehaviour:
  m_CorrespondingSourceObject: {fileID: 11439880, guid: 7aae0586f5a9bf2479f9423b516532f7,
    type: 3}
  m_PrefabInstance: {fileID: 627640933}
  m_PrefabAsset: {fileID: 0}
  m_GameObject: {fileID: 0}
  m_Enabled: 1
  m_EditorHideFlags: 0
  m_Script: {fileID: 11500000, guid: 62ee2acd474d24a47ae16541e4f523f8, type: 3}
  m_Name: 
  m_EditorClassIdentifier: 
--- !u!1 &1539021401
GameObject:
  m_ObjectHideFlags: 0
  m_CorrespondingSourceObject: {fileID: 0}
  m_PrefabInstance: {fileID: 0}
  m_PrefabAsset: {fileID: 0}
  serializedVersion: 6
  m_Component:
  - component: {fileID: 1539021403}
  - component: {fileID: 1539021402}
  m_Layer: 0
  m_Name: Directional Light
  m_TagString: Untagged
  m_Icon: {fileID: 0}
  m_NavMeshLayer: 0
  m_StaticEditorFlags: 0
  m_IsActive: 1
--- !u!108 &1539021402
Light:
  m_ObjectHideFlags: 0
  m_CorrespondingSourceObject: {fileID: 0}
  m_PrefabInstance: {fileID: 0}
  m_PrefabAsset: {fileID: 0}
  m_GameObject: {fileID: 1539021401}
  m_Enabled: 1
  serializedVersion: 10
  m_Type: 1
  m_Shape: 0
  m_Color: {r: 1, g: 1, b: 1, a: 1}
  m_Intensity: 0.9
  m_Range: 10
  m_SpotAngle: 30
  m_InnerSpotAngle: 21.80208
  m_CookieSize: 10
  m_Shadows:
    m_Type: 2
    m_Resolution: -1
    m_CustomResolution: -1
    m_Strength: 0.283
    m_Bias: 0.05
    m_NormalBias: 0.4
    m_NearPlane: 0.2
    m_CullingMatrixOverride:
      e00: 1
      e01: 0
      e02: 0
      e03: 0
      e10: 0
      e11: 1
      e12: 0
      e13: 0
      e20: 0
      e21: 0
      e22: 1
      e23: 0
      e30: 0
      e31: 0
      e32: 0
      e33: 1
    m_UseCullingMatrixOverride: 0
  m_Cookie: {fileID: 0}
  m_DrawHalo: 0
  m_Flare: {fileID: 0}
  m_RenderMode: 0
  m_CullingMask:
    serializedVersion: 2
    m_Bits: 4294967295
  m_RenderingLayerMask: 1
  m_Lightmapping: 1
  m_LightShadowCasterMode: 0
  m_AreaSize: {x: 1, y: 1}
  m_BounceIntensity: 1
  m_ColorTemperature: 6570
  m_UseColorTemperature: 0
  m_BoundingSphereOverride: {x: 0, y: 0, z: 0, w: 0}
  m_UseBoundingSphereOverride: 0
  m_ShadowRadius: 0
  m_ShadowAngle: 0
--- !u!4 &1539021403
Transform:
  m_ObjectHideFlags: 0
  m_CorrespondingSourceObject: {fileID: 0}
  m_PrefabInstance: {fileID: 0}
  m_PrefabAsset: {fileID: 0}
  m_GameObject: {fileID: 1539021401}
  m_LocalRotation: {x: 0.40821794, y: -0.23456973, z: 0.10938166, w: 0.8754261}
  m_LocalPosition: {x: 0, y: 3, z: 0}
  m_LocalScale: {x: 1, y: 1, z: 1}
  m_Children: []
  m_Father: {fileID: 0}
  m_RootOrder: 1
  m_LocalEulerAnglesHint: {x: 0, y: 0, z: 0}
--- !u!114 &1958241800 stripped
MonoBehaviour:
  m_CorrespondingSourceObject: {fileID: 11414618, guid: 7aae0586f5a9bf2479f9423b516532f7,
    type: 3}
  m_PrefabInstance: {fileID: 627640933}
  m_PrefabAsset: {fileID: 0}
  m_GameObject: {fileID: 0}
  m_Enabled: 1
  m_EditorHideFlags: 0
  m_Script: {fileID: 11500000, guid: 62ee2acd474d24a47ae16541e4f523f8, type: 3}
  m_Name: 
  m_EditorClassIdentifier: 
--- !u!1001 &2010506140
PrefabInstance:
  m_ObjectHideFlags: 0
  serializedVersion: 2
  m_Modification:
    m_TransformParent: {fileID: 0}
    m_Modifications:
    - target: {fileID: 495926, guid: d93c116cac5c4464cba518c1bd2ee69a, type: 3}
      propertyPath: m_LocalPosition.x
      value: 19.70581
      objectReference: {fileID: 0}
    - target: {fileID: 495926, guid: d93c116cac5c4464cba518c1bd2ee69a, type: 3}
      propertyPath: m_LocalPosition.y
      value: 5.7218575
      objectReference: {fileID: 0}
    - target: {fileID: 495926, guid: d93c116cac5c4464cba518c1bd2ee69a, type: 3}
      propertyPath: m_LocalPosition.z
      value: -12.286327
      objectReference: {fileID: 0}
    - target: {fileID: 495926, guid: d93c116cac5c4464cba518c1bd2ee69a, type: 3}
      propertyPath: m_LocalRotation.x
      value: 0
      objectReference: {fileID: 0}
    - target: {fileID: 495926, guid: d93c116cac5c4464cba518c1bd2ee69a, type: 3}
      propertyPath: m_LocalRotation.y
      value: 0
      objectReference: {fileID: 0}
    - target: {fileID: 495926, guid: d93c116cac5c4464cba518c1bd2ee69a, type: 3}
      propertyPath: m_LocalRotation.z
      value: 0
      objectReference: {fileID: 0}
    - target: {fileID: 495926, guid: d93c116cac5c4464cba518c1bd2ee69a, type: 3}
      propertyPath: m_LocalRotation.w
      value: 1
      objectReference: {fileID: 0}
    - target: {fileID: 495926, guid: d93c116cac5c4464cba518c1bd2ee69a, type: 3}
      propertyPath: m_RootOrder
      value: 4
      objectReference: {fileID: 0}
    - target: {fileID: 11408202, guid: d93c116cac5c4464cba518c1bd2ee69a, type: 3}
      propertyPath: m_maxParticlesCount
      value: 65536
      objectReference: {fileID: 0}
    - target: {fileID: 11408202, guid: d93c116cac5c4464cba518c1bd2ee69a, type: 3}
      propertyPath: m_fixedTimeStepMult
      value: 1.5
      objectReference: {fileID: 0}
    - target: {fileID: 11408202, guid: d93c116cac5c4464cba518c1bd2ee69a, type: 3}
      propertyPath: m_solverSubSteps
      value: 2
      objectReference: {fileID: 0}
    - target: {fileID: 11437460, guid: d93c116cac5c4464cba518c1bd2ee69a, type: 3}
      propertyPath: m_NumPlanes
      value: 0
      objectReference: {fileID: 0}
    - target: {fileID: 11437460, guid: d93c116cac5c4464cba518c1bd2ee69a, type: 3}
      propertyPath: m_Fluid
      value: 0
      objectReference: {fileID: 0}
    - target: {fileID: 11437460, guid: d93c116cac5c4464cba518c1bd2ee69a, type: 3}
      propertyPath: m_SolidRestDistance
      value: .5
      objectReference: {fileID: 0}
    - target: {fileID: 11437460, guid: d93c116cac5c4464cba518c1bd2ee69a, type: 3}
      propertyPath: m_Radius
      value: .5
      objectReference: {fileID: 0}
    - target: {fileID: 11437460, guid: d93c116cac5c4464cba518c1bd2ee69a, type: 3}
      propertyPath: m_Drag
      value: 0.01
      objectReference: {fileID: 0}
    - target: {fileID: 11437460, guid: d93c116cac5c4464cba518c1bd2ee69a, type: 3}
      propertyPath: m_Lift
      value: 0.008
      objectReference: {fileID: 0}
    - target: {fileID: 11437460, guid: d93c116cac5c4464cba518c1bd2ee69a, type: 3}
      propertyPath: m_numIterations
      value: 5
      objectReference: {fileID: 0}
    - target: {fileID: 11444918, guid: d93c116cac5c4464cba518c1bd2ee69a, type: 3}
      propertyPath: m_maxParticlesCount
      value: 65536
      objectReference: {fileID: 0}
    m_RemovedComponents: []
  m_SourcePrefab: {fileID: 100100000, guid: d93c116cac5c4464cba518c1bd2ee69a, type: 3}
--- !u!1 &2130947398
GameObject:
  m_ObjectHideFlags: 0
  m_CorrespondingSourceObject: {fileID: 0}
  m_PrefabInstance: {fileID: 0}
  m_PrefabAsset: {fileID: 0}
  serializedVersion: 6
  m_Component:
  - component: {fileID: 2130947402}
  - component: {fileID: 2130947401}
  - component: {fileID: 2130947399}
  - component: {fileID: 2130947400}
  m_Layer: 0
  m_Name: Plane
  m_TagString: Untagged
  m_Icon: {fileID: 0}
  m_NavMeshLayer: 0
  m_StaticEditorFlags: 0
  m_IsActive: 1
--- !u!23 &2130947399
MeshRenderer:
  m_ObjectHideFlags: 0
  m_CorrespondingSourceObject: {fileID: 0}
  m_PrefabInstance: {fileID: 0}
  m_PrefabAsset: {fileID: 0}
  m_GameObject: {fileID: 2130947398}
  m_Enabled: 1
  m_CastShadows: 1
  m_ReceiveShadows: 1
  m_DynamicOccludee: 1
  m_MotionVectors: 1
  m_LightProbeUsage: 1
  m_ReflectionProbeUsage: 1
  m_RayTracingMode: 2
  m_RenderingLayerMask: 1
  m_RendererPriority: 0
  m_Materials:
  - {fileID: 2100000, guid: 121598f39eb51b549943189b6b6a6903, type: 2}
  m_StaticBatchInfo:
    firstSubMesh: 0
    subMeshCount: 0
  m_StaticBatchRoot: {fileID: 0}
  m_ProbeAnchor: {fileID: 0}
  m_LightProbeVolumeOverride: {fileID: 0}
  m_ScaleInLightmap: 1
  m_ReceiveGI: 1
  m_PreserveUVs: 1
  m_IgnoreNormalsForChartDetection: 0
  m_ImportantGI: 0
  m_StitchLightmapSeams: 1
  m_SelectedEditorRenderState: 3
  m_MinimumChartSize: 4
  m_AutoUVMaxDistance: 0.5
  m_AutoUVMaxAngle: 89
  m_LightmapParameters: {fileID: 0}
  m_SortingLayerID: 0
  m_SortingLayer: 0
  m_SortingOrder: 0
--- !u!64 &2130947400
MeshCollider:
  m_ObjectHideFlags: 0
  m_CorrespondingSourceObject: {fileID: 0}
  m_PrefabInstance: {fileID: 0}
  m_PrefabAsset: {fileID: 0}
  m_GameObject: {fileID: 2130947398}
  m_Material: {fileID: 0}
  m_IsTrigger: 0
  m_Enabled: 1
  serializedVersion: 4
  m_Convex: 0
  m_CookingOptions: 30
  m_Mesh: {fileID: 10209, guid: 0000000000000000e000000000000000, type: 0}
--- !u!33 &2130947401
MeshFilter:
  m_ObjectHideFlags: 0
  m_CorrespondingSourceObject: {fileID: 0}
  m_PrefabInstance: {fileID: 0}
  m_PrefabAsset: {fileID: 0}
  m_GameObject: {fileID: 2130947398}
  m_Mesh: {fileID: 10209, guid: 0000000000000000e000000000000000, type: 0}
--- !u!4 &2130947402
Transform:
  m_ObjectHideFlags: 0
  m_CorrespondingSourceObject: {fileID: 0}
  m_PrefabInstance: {fileID: 0}
  m_PrefabAsset: {fileID: 0}
  m_GameObject: {fileID: 2130947398}
  m_LocalRotation: {x: 0, y: 0, z: 0, w: 1}
  m_LocalPosition: {x: 0, y: 0, z: 0}
  m_LocalScale: {x: 50, y: 1, z: 50}
  m_Children: []
  m_Father: {fileID: 0}
  m_RootOrder: 2
  m_LocalEulerAnglesHint: {x: 0, y: 0, z: 0}
--- !u!1 &2137085184 stripped
GameObject:
  m_CorrespondingSourceObject: {fileID: 176192, guid: d93c116cac5c4464cba518c1bd2ee69a,
    type: 3}
  m_PrefabInstance: {fileID: 2010506140}
  m_PrefabAsset: {fileID: 0}
--- !u!114 &2137085185
MonoBehaviour:
  m_ObjectHideFlags: 0
  m_CorrespondingSourceObject: {fileID: 0}
  m_PrefabInstance: {fileID: 0}
  m_PrefabAsset: {fileID: 0}
  m_GameObject: {fileID: 2137085184}
  m_Enabled: 1
  m_EditorHideFlags: 0
  m_Script: {fileID: 11500000, guid: 30a67f3ef3e1bc448969de949785f600, type: 3}
  m_Name: 
  m_EditorClassIdentifier: 
  m_direction: {x: 1, y: 1, z: 0}
  m_strength: 40
  m_freq: 2
